<mxfile host="Electron" modified="2024-02-25T04:15:01.937Z" agent="Mozilla/5.0 (Windows NT 10.0; Win64; x64) AppleWebKit/537.36 (KHTML, like Gecko) draw.io/21.6.5 Chrome/114.0.5735.243 Electron/25.3.1 Safari/537.36" etag="svw5hu2kwCbqChRLuYz_" version="21.6.5" type="device" pages="3">
  <diagram id="PPcH5TzmcU1ZLUgg3Jdl" name="Page-1">
    <mxGraphModel dx="1030" dy="2200" grid="1" gridSize="10" guides="1" tooltips="1" connect="1" arrows="1" fold="1" page="1" pageScale="1" pageWidth="850" pageHeight="1100" math="0" shadow="0">
      <root>
        <mxCell id="0" />
        <mxCell id="1" parent="0" />
        <mxCell id="4FfXCjYkKpjOcgBjNPva-1" value="City" style="rounded=1;whiteSpace=wrap;html=1;fillColor=#A39476;strokeColor=none;fontSize=22;" parent="1" vertex="1">
          <mxGeometry x="1480" y="510" width="470" height="270" as="geometry" />
        </mxCell>
        <mxCell id="4FfXCjYkKpjOcgBjNPva-2" value="Tombwater Station" style="rounded=1;whiteSpace=wrap;html=1;fillColor=#615846;strokeColor=none;fontSize=22;" parent="1" vertex="1">
          <mxGeometry x="1480" y="510" width="140" height="200" as="geometry" />
        </mxCell>
        <mxCell id="4FfXCjYkKpjOcgBjNPva-5" value="Canyon" style="rounded=1;whiteSpace=wrap;html=1;fillColor=#A3703E;strokeColor=none;fontSize=22;" parent="1" vertex="1">
          <mxGeometry x="1450" y="930" width="610" height="100" as="geometry" />
        </mxCell>
        <mxCell id="4FfXCjYkKpjOcgBjNPva-6" value="Canyon" style="rounded=1;whiteSpace=wrap;html=1;fillColor=#A3703E;strokeColor=none;fontSize=22;" parent="1" vertex="1">
          <mxGeometry x="1990" y="370" width="130" height="660" as="geometry" />
        </mxCell>
        <mxCell id="4FfXCjYkKpjOcgBjNPva-7" value="Scrubland / Desert" style="rounded=1;whiteSpace=wrap;html=1;fillColor=#C2A659;strokeColor=none;fontSize=22;" parent="1" vertex="1">
          <mxGeometry x="1060" y="500" width="405" height="520" as="geometry" />
        </mxCell>
        <mxCell id="4FfXCjYkKpjOcgBjNPva-9" value="Lake" style="rounded=1;whiteSpace=wrap;html=1;fillColor=#2C8274;strokeColor=none;fontSize=22;" parent="1" vertex="1">
          <mxGeometry x="1080" y="-200" width="440" height="680" as="geometry" />
        </mxCell>
        <mxCell id="4FfXCjYkKpjOcgBjNPva-8" value="Lake District" style="rounded=1;whiteSpace=wrap;html=1;fillColor=#A39476;strokeColor=none;fontSize=22;" parent="1" vertex="1">
          <mxGeometry x="1370" y="190" width="340" height="300" as="geometry" />
        </mxCell>
        <mxCell id="4FfXCjYkKpjOcgBjNPva-11" value="Graveyard" style="rounded=1;whiteSpace=wrap;html=1;fillColor=#C2B98C;strokeColor=none;fontSize=22;" parent="1" vertex="1">
          <mxGeometry x="2110" y="710" width="260" height="200" as="geometry" />
        </mxCell>
        <mxCell id="4FfXCjYkKpjOcgBjNPva-12" value="Pine Forest" style="rounded=1;whiteSpace=wrap;html=1;fillColor=#47821F;strokeColor=none;fontSize=22;" parent="1" vertex="1">
          <mxGeometry x="2190" y="160" width="230" height="450" as="geometry" />
        </mxCell>
        <mxCell id="4FfXCjYkKpjOcgBjNPva-13" value="Estate" style="rounded=1;whiteSpace=wrap;html=1;fillColor=#C2B98C;strokeColor=none;fontSize=22;" parent="1" vertex="1">
          <mxGeometry x="1920" y="-70" width="440" height="220" as="geometry" />
        </mxCell>
        <mxCell id="4FfXCjYkKpjOcgBjNPva-4" value="Canyon Settlement" style="rounded=1;whiteSpace=wrap;html=1;fillColor=#75673F;strokeColor=none;fontSize=22;" parent="1" vertex="1">
          <mxGeometry x="1630" y="770" width="380" height="160" as="geometry" />
        </mxCell>
        <mxCell id="4FfXCjYkKpjOcgBjNPva-14" value="Scrubland / Desert" style="rounded=1;whiteSpace=wrap;html=1;fillColor=#C2A659;strokeColor=none;fontSize=22;" parent="1" vertex="1">
          <mxGeometry x="2130" y="610" width="290" height="110" as="geometry" />
        </mxCell>
        <mxCell id="4FfXCjYkKpjOcgBjNPva-26" value="Mining Camp" style="rounded=1;whiteSpace=wrap;html=1;fillColor=#C2A659;strokeColor=none;fontSize=22;" parent="1" vertex="1">
          <mxGeometry x="1710" y="230" width="280" height="230" as="geometry" />
        </mxCell>
        <mxCell id="4FfXCjYkKpjOcgBjNPva-29" value="Mine&lt;br style=&quot;font-size: 22px;&quot;&gt;Trail" style="rounded=1;whiteSpace=wrap;html=1;fillColor=#75673F;strokeColor=none;fontSize=22;" parent="1" vertex="1">
          <mxGeometry x="1940" y="380" width="50" height="400" as="geometry" />
        </mxCell>
        <mxCell id="4FfXCjYkKpjOcgBjNPva-15" value="Bridge" style="rounded=1;whiteSpace=wrap;html=1;fillColor=#615846;strokeColor=none;fontSize=22;" parent="1" vertex="1">
          <mxGeometry x="1930" y="630" width="220" height="60" as="geometry" />
        </mxCell>
        <mxCell id="4FfXCjYkKpjOcgBjNPva-34" value="Dig Site" style="rounded=1;whiteSpace=wrap;html=1;fillColor=#A3703E;strokeColor=none;fontSize=22;" parent="1" vertex="1">
          <mxGeometry x="1390" y="-340" width="260" height="140" as="geometry" />
        </mxCell>
        <mxCell id="c7B-IkZV5_5Xheh-3y2A-2" value="" style="rounded=1;whiteSpace=wrap;html=1;fillColor=#A3703E;strokeColor=none;fontSize=22;" parent="1" vertex="1">
          <mxGeometry x="1720" y="450" width="50" height="70" as="geometry" />
        </mxCell>
        <mxCell id="c7B-IkZV5_5Xheh-3y2A-3" value="Adelaide&#39;s Homestead" style="rounded=1;whiteSpace=wrap;html=1;fillColor=#B8C259;strokeColor=none;fontSize=22;" parent="1" vertex="1">
          <mxGeometry x="900" y="570" width="160" height="180" as="geometry" />
        </mxCell>
        <mxCell id="CNXXIB2DPV00nysnh1lV-1" value="Mesa Ruins" style="rounded=1;whiteSpace=wrap;html=1;fillColor=#A3703E;strokeColor=none;fontSize=22;" parent="1" vertex="1">
          <mxGeometry x="910" y="840" width="265" height="200" as="geometry" />
        </mxCell>
        <mxCell id="tEbcuhpimzQmLIy2oHa6-1" value="Dark Forest" style="rounded=1;whiteSpace=wrap;html=1;fillColor=#75673F;strokeColor=none;fontSize=22;" parent="1" vertex="1">
          <mxGeometry x="1030" y="-200" width="490" height="180" as="geometry" />
        </mxCell>
        <mxCell id="tEbcuhpimzQmLIy2oHa6-2" value="Dark Forest" style="rounded=1;whiteSpace=wrap;html=1;fillColor=#75673F;strokeColor=none;fontSize=22;" parent="1" vertex="1">
          <mxGeometry x="1030" y="-70" width="130" height="270" as="geometry" />
        </mxCell>
        <mxCell id="4FfXCjYkKpjOcgBjNPva-3" value="Argent Cathedral" style="rounded=1;whiteSpace=wrap;html=1;fillColor=#615846;strokeColor=none;fontSize=22;" parent="1" vertex="1">
          <mxGeometry x="1780" y="450" width="160" height="210" as="geometry" />
        </mxCell>
        <mxCell id="tEbcuhpimzQmLIy2oHa6-4" value="Mountaintop" style="rounded=1;whiteSpace=wrap;html=1;fillColor=#91CACC;strokeColor=none;fontSize=22;" parent="1" vertex="1">
          <mxGeometry x="1680" y="-210" width="272.5" height="240" as="geometry" />
        </mxCell>
        <mxCell id="tEbcuhpimzQmLIy2oHa6-3" value="Pilgrim&lt;br&gt;Trail" style="rounded=1;whiteSpace=wrap;html=1;fillColor=#615846;strokeColor=none;fontSize=22;" parent="1" vertex="1">
          <mxGeometry x="1715" y="-10" width="80" height="270" as="geometry" />
        </mxCell>
        <mxCell id="tEbcuhpimzQmLIy2oHa6-5" value="Dig Site" style="rounded=1;whiteSpace=wrap;html=1;fillColor=#A3703E;strokeColor=none;fontSize=22;" parent="1" vertex="1">
          <mxGeometry x="1510" y="-250" width="140" height="300" as="geometry" />
        </mxCell>
      </root>
    </mxGraphModel>
  </diagram>
  <diagram id="5vzE6qzgdaS5vyb2hd1X" name="Page-2">
    <mxGraphModel dx="873" dy="2108" grid="1" gridSize="10" guides="1" tooltips="1" connect="1" arrows="1" fold="1" page="1" pageScale="1" pageWidth="850" pageHeight="1100" math="0" shadow="0">
      <root>
        <mxCell id="0" />
        <mxCell id="1" parent="0" />
        <mxCell id="LaclUSlcc0hQrI3n_9na-35" value="" style="group;fontColor=#A19274;" parent="1" vertex="1" connectable="0">
          <mxGeometry x="1060" y="-200" width="1370" height="1230" as="geometry" />
        </mxCell>
        <mxCell id="7W-RIihYrBSRY7TOOI1Y-1" value="&amp;nbsp; &amp;nbsp;" style="rounded=1;whiteSpace=wrap;html=1;fillColor=#A39476;strokeColor=none;opacity=40;fontColor=#A19274;" parent="LaclUSlcc0hQrI3n_9na-35" vertex="1">
          <mxGeometry x="420" y="710" width="470" height="270" as="geometry" />
        </mxCell>
        <mxCell id="7W-RIihYrBSRY7TOOI1Y-2" value="Tombwater Station" style="rounded=1;whiteSpace=wrap;html=1;fillColor=#615846;strokeColor=none;opacity=40;fontColor=#A19274;" parent="LaclUSlcc0hQrI3n_9na-35" vertex="1">
          <mxGeometry x="420" y="710" width="140" height="200" as="geometry" />
        </mxCell>
        <mxCell id="7W-RIihYrBSRY7TOOI1Y-3" value="Argent Cathedral" style="rounded=1;whiteSpace=wrap;html=1;fillColor=#615846;strokeColor=none;opacity=40;fontColor=#A19274;" parent="LaclUSlcc0hQrI3n_9na-35" vertex="1">
          <mxGeometry x="660" y="580" width="160" height="160" as="geometry" />
        </mxCell>
        <mxCell id="7W-RIihYrBSRY7TOOI1Y-4" value="Canyon" style="rounded=1;whiteSpace=wrap;html=1;fillColor=#A3703E;strokeColor=none;opacity=40;fontColor=#A19274;" parent="LaclUSlcc0hQrI3n_9na-35" vertex="1">
          <mxGeometry x="390" y="1130" width="610" height="100" as="geometry" />
        </mxCell>
        <mxCell id="7W-RIihYrBSRY7TOOI1Y-5" value="Canyon" style="rounded=1;whiteSpace=wrap;html=1;fillColor=#A3703E;strokeColor=none;opacity=40;fontColor=#A19274;" parent="LaclUSlcc0hQrI3n_9na-35" vertex="1">
          <mxGeometry x="930" y="570" width="130" height="660" as="geometry" />
        </mxCell>
        <mxCell id="7W-RIihYrBSRY7TOOI1Y-6" value="Scrubland / Desert" style="rounded=1;whiteSpace=wrap;html=1;fillColor=#C2A659;strokeColor=none;opacity=40;fontColor=#A19274;" parent="LaclUSlcc0hQrI3n_9na-35" vertex="1">
          <mxGeometry y="700" width="405" height="520" as="geometry" />
        </mxCell>
        <mxCell id="7W-RIihYrBSRY7TOOI1Y-7" value="Lake" style="rounded=1;whiteSpace=wrap;html=1;fillColor=#2C8274;strokeColor=none;opacity=40;fontColor=#A19274;" parent="LaclUSlcc0hQrI3n_9na-35" vertex="1">
          <mxGeometry x="20" width="440" height="680" as="geometry" />
        </mxCell>
        <mxCell id="7W-RIihYrBSRY7TOOI1Y-8" value="Lake District" style="rounded=1;whiteSpace=wrap;html=1;fillColor=#A39476;strokeColor=none;opacity=40;fontColor=#A19274;" parent="LaclUSlcc0hQrI3n_9na-35" vertex="1">
          <mxGeometry x="310" y="390" width="340" height="250" as="geometry" />
        </mxCell>
        <mxCell id="7W-RIihYrBSRY7TOOI1Y-9" value="Graveyard" style="rounded=1;whiteSpace=wrap;html=1;fillColor=#C2B98C;strokeColor=none;opacity=40;fontColor=#A19274;" parent="LaclUSlcc0hQrI3n_9na-35" vertex="1">
          <mxGeometry x="1120" y="930" width="190" height="145" as="geometry" />
        </mxCell>
        <mxCell id="7W-RIihYrBSRY7TOOI1Y-10" value="Pine Forest" style="rounded=1;whiteSpace=wrap;html=1;fillColor=#47821F;strokeColor=none;opacity=40;fontColor=#A19274;" parent="LaclUSlcc0hQrI3n_9na-35" vertex="1">
          <mxGeometry x="1130" y="360" width="230" height="450" as="geometry" />
        </mxCell>
        <mxCell id="7W-RIihYrBSRY7TOOI1Y-11" value="Estate" style="rounded=1;whiteSpace=wrap;html=1;fillColor=#C2B98C;strokeColor=none;opacity=40;fontColor=#A19274;" parent="LaclUSlcc0hQrI3n_9na-35" vertex="1">
          <mxGeometry x="860" y="130" width="440" height="220" as="geometry" />
        </mxCell>
        <mxCell id="7W-RIihYrBSRY7TOOI1Y-12" value="Canyon Settlement" style="rounded=1;whiteSpace=wrap;html=1;fillColor=#75673F;strokeColor=none;opacity=40;fontColor=#A19274;" parent="LaclUSlcc0hQrI3n_9na-35" vertex="1">
          <mxGeometry x="570" y="970" width="380" height="160" as="geometry" />
        </mxCell>
        <mxCell id="7W-RIihYrBSRY7TOOI1Y-13" value="Scrubland / Desert" style="rounded=1;whiteSpace=wrap;html=1;fillColor=#C2A659;strokeColor=none;opacity=40;fontColor=#A19274;" parent="LaclUSlcc0hQrI3n_9na-35" vertex="1">
          <mxGeometry x="1070" y="810" width="290" height="110" as="geometry" />
        </mxCell>
        <mxCell id="7W-RIihYrBSRY7TOOI1Y-14" value="Mine Processing" style="rounded=1;whiteSpace=wrap;html=1;fillColor=#C2A659;strokeColor=none;opacity=40;fontColor=#A19274;" parent="LaclUSlcc0hQrI3n_9na-35" vertex="1">
          <mxGeometry x="770" y="430" width="210" height="150" as="geometry" />
        </mxCell>
        <mxCell id="7W-RIihYrBSRY7TOOI1Y-15" value="Mine&lt;br&gt;Trail" style="rounded=1;whiteSpace=wrap;html=1;fillColor=#75673F;strokeColor=none;opacity=40;fontColor=#A19274;" parent="LaclUSlcc0hQrI3n_9na-35" vertex="1">
          <mxGeometry x="880" y="580" width="50" height="400" as="geometry" />
        </mxCell>
        <mxCell id="7W-RIihYrBSRY7TOOI1Y-16" value="Bridge" style="rounded=1;whiteSpace=wrap;html=1;fillColor=#615846;strokeColor=none;opacity=40;fontColor=#A19274;" parent="LaclUSlcc0hQrI3n_9na-35" vertex="1">
          <mxGeometry x="870" y="830" width="220" height="60" as="geometry" />
        </mxCell>
        <mxCell id="7W-RIihYrBSRY7TOOI1Y-17" value="Dig Site" style="rounded=1;whiteSpace=wrap;html=1;fillColor=#A3703E;strokeColor=none;opacity=40;fontColor=#A19274;" parent="LaclUSlcc0hQrI3n_9na-35" vertex="1">
          <mxGeometry x="460" y="20" width="260" height="90" as="geometry" />
        </mxCell>
        <mxCell id="kVefenLZ5KiSfYhxk4gH-2" value="Mausoleum" style="rounded=1;whiteSpace=wrap;html=1;fillColor=#615846;strokeColor=none;fontSize=22;fontColor=#000000;" parent="LaclUSlcc0hQrI3n_9na-35" vertex="1">
          <mxGeometry x="1150" y="930" width="70" height="80" as="geometry" />
        </mxCell>
        <mxCell id="kVefenLZ5KiSfYhxk4gH-24" value="&lt;span style=&quot;font-family: monospace; font-size: 0px;&quot;&gt;%3CmxGraphModel%3E%3Croot%3E%3CmxCell%20id%3D%220%22%2F%3E%3CmxCell%20id%3D%221%22%20parent%3D%220%22%2F%3E%3CmxCell%20id%3D%222%22%20value%3D%22%22%20style%3D%22rounded%3D1%3BwhiteSpace%3Dwrap%3Bhtml%3D1%3BfillColor%3D%23615846%3BstrokeColor%3Dnone%3BfontSize%3D22%3B%22%20vertex%3D%221%22%20parent%3D%221%22%3E%3CmxGeometry%20x%3D%222230%22%20y%3D%22555%22%20width%3D%2220%22%20height%3D%22180%22%20as%3D%22geometry%22%2F%3E%3C%2FmxCell%3E%3C%2Froot%3E%3C%2FmxGraphModel%3E&lt;/span&gt;" style="rounded=1;whiteSpace=wrap;html=1;fillColor=#615846;strokeColor=none;fontSize=22;fontColor=#A19274;" parent="LaclUSlcc0hQrI3n_9na-35" vertex="1">
          <mxGeometry x="600" y="870" width="590" height="20" as="geometry" />
        </mxCell>
        <mxCell id="kVefenLZ5KiSfYhxk4gH-23" value="Catacombs" style="rounded=1;whiteSpace=wrap;html=1;fillColor=#615846;strokeColor=none;fontSize=22;fontColor=#000000;" parent="LaclUSlcc0hQrI3n_9na-35" vertex="1">
          <mxGeometry x="1180" y="812.5" width="110" height="135" as="geometry" />
        </mxCell>
        <mxCell id="kVefenLZ5KiSfYhxk4gH-25" value="&lt;span style=&quot;font-family: monospace; font-size: 0px;&quot;&gt;%3CmxGraphModel%3E%3Croot%3E%3CmxCell%20id%3D%220%22%2F%3E%3CmxCell%20id%3D%221%22%20parent%3D%220%22%2F%3E%3CmxCell%20id%3D%222%22%20value%3D%22%22%20style%3D%22rounded%3D1%3BwhiteSpace%3Dwrap%3Bhtml%3D1%3BfillColor%3D%23615846%3BstrokeColor%3Dnone%3BfontSize%3D22%3B%22%20vertex%3D%221%22%20parent%3D%221%22%3E%3CmxGeometry%20x%3D%222230%22%20y%3D%22555%22%20width%3D%2220%22%20height%3D%22180%22%20as%3D%22geometry%22%2F%3E%3C%2FmxCell%3E%3C%2Froot%3E%3C%2FmxGraphModel%3E&lt;/span&gt;" style="rounded=1;whiteSpace=wrap;html=1;fillColor=#615846;strokeColor=none;fontSize=22;fontColor=#A19274;" parent="LaclUSlcc0hQrI3n_9na-35" vertex="1">
          <mxGeometry x="820" y="660" width="20" height="230" as="geometry" />
        </mxCell>
        <mxCell id="kVefenLZ5KiSfYhxk4gH-26" value="&lt;span style=&quot;font-family: monospace; font-size: 0px;&quot;&gt;%3CmxGraphModel%3E%3Croot%3E%3CmxCell%20id%3D%220%22%2F%3E%3CmxCell%20id%3D%221%22%20parent%3D%220%22%2F%3E%3CmxCell%20id%3D%222%22%20value%3D%22%22%20style%3D%22rounded%3D1%3BwhiteSpace%3Dwrap%3Bhtml%3D1%3BfillColor%3D%23615846%3BstrokeColor%3Dnone%3BfontSize%3D22%3B%22%20vertex%3D%221%22%20parent%3D%221%22%3E%3CmxGeometry%20x%3D%222230%22%20y%3D%22555%22%20width%3D%2220%22%20height%3D%22180%22%20as%3D%22geometry%22%2F%3E%3C%2FmxCell%3E%3C%2Froot%3E%3C%2FmxGraphModel%3E&lt;/span&gt;" style="rounded=1;whiteSpace=wrap;html=1;fillColor=#615846;strokeColor=none;fontSize=22;fontColor=#A19274;" parent="LaclUSlcc0hQrI3n_9na-35" vertex="1">
          <mxGeometry x="600" y="660" width="240" height="20" as="geometry" />
        </mxCell>
        <mxCell id="kVefenLZ5KiSfYhxk4gH-27" value="&lt;span style=&quot;font-family: monospace; font-size: 0px;&quot;&gt;%3CmxGraphModel%3E%3Croot%3E%3CmxCell%20id%3D%220%22%2F%3E%3CmxCell%20id%3D%221%22%20parent%3D%220%22%2F%3E%3CmxCell%20id%3D%222%22%20value%3D%22%22%20style%3D%22rounded%3D1%3BwhiteSpace%3Dwrap%3Bhtml%3D1%3BfillColor%3D%23615846%3BstrokeColor%3Dnone%3BfontSize%3D22%3B%22%20vertex%3D%221%22%20parent%3D%221%22%3E%3CmxGeometry%20x%3D%222230%22%20y%3D%22555%22%20width%3D%2220%22%20height%3D%22180%22%20as%3D%22geometry%22%2F%3E%3C%2FmxCell%3E%3C%2Froot%3E%3C%2FmxGraphModel%3E&lt;/span&gt;" style="rounded=1;whiteSpace=wrap;html=1;fillColor=#615846;strokeColor=none;fontSize=22;fontColor=#A19274;" parent="LaclUSlcc0hQrI3n_9na-35" vertex="1">
          <mxGeometry x="600" y="540" width="20" height="140" as="geometry" />
        </mxCell>
        <mxCell id="cDODtDZHRQNXtEbilIO9-1" value="&lt;span style=&quot;font-family: monospace; font-size: 0px;&quot;&gt;%3CmxGraphModel%3E%3Croot%3E%3CmxCell%20id%3D%220%22%2F%3E%3CmxCell%20id%3D%221%22%20parent%3D%220%22%2F%3E%3CmxCell%20id%3D%222%22%20value%3D%22%22%20style%3D%22rounded%3D1%3BwhiteSpace%3Dwrap%3Bhtml%3D1%3BfillColor%3D%23615846%3BstrokeColor%3Dnone%3BfontSize%3D22%3B%22%20vertex%3D%221%22%20parent%3D%221%22%3E%3CmxGeometry%20x%3D%222230%22%20y%3D%22555%22%20width%3D%2220%22%20height%3D%22180%22%20as%3D%22geometry%22%2F%3E%3C%2FmxCell%3E%3C%2Froot%3E%3C%2FmxGraphModel%3E&lt;/span&gt;" style="rounded=1;whiteSpace=wrap;html=1;fillColor=#615846;strokeColor=none;fontSize=22;fontColor=#A19274;" parent="LaclUSlcc0hQrI3n_9na-35" vertex="1">
          <mxGeometry x="600" y="870" width="20" height="120" as="geometry" />
        </mxCell>
        <mxCell id="cDODtDZHRQNXtEbilIO9-27" value="&lt;span style=&quot;font-family: monospace; font-size: 0px;&quot;&gt;%3CmxGraphModel%3E%3Croot%3E%3CmxCell%20id%3D%220%22%2F%3E%3CmxCell%20id%3D%221%22%20parent%3D%220%22%2F%3E%3CmxCell%20id%3D%222%22%20value%3D%22%22%20style%3D%22rounded%3D1%3BwhiteSpace%3Dwrap%3Bhtml%3D1%3BfillColor%3D%23615846%3BstrokeColor%3Dnone%3BfontSize%3D22%3B%22%20vertex%3D%221%22%20parent%3D%221%22%3E%3CmxGeometry%20x%3D%222230%22%20y%3D%22555%22%20width%3D%2220%22%20height%3D%22180%22%20as%3D%22geometry%22%2F%3E%3C%2FmxCell%3E%3C%2Froot%3E%3C%2FmxGraphModel%3E&lt;/span&gt;" style="rounded=1;whiteSpace=wrap;html=1;fillColor=#615846;strokeColor=none;fontSize=22;fontColor=#A19274;" parent="LaclUSlcc0hQrI3n_9na-35" vertex="1">
          <mxGeometry x="640" y="750" width="20" height="140" as="geometry" />
        </mxCell>
        <mxCell id="-39sxVK61BPySdERtqr_-1" value="&lt;span style=&quot;font-family: monospace; font-size: 0px;&quot;&gt;%3CmxGraphModel%3E%3Croot%3E%3CmxCell%20id%3D%220%22%2F%3E%3CmxCell%20id%3D%221%22%20parent%3D%220%22%2F%3E%3CmxCell%20id%3D%222%22%20value%3D%22%22%20style%3D%22rounded%3D1%3BwhiteSpace%3Dwrap%3Bhtml%3D1%3BfillColor%3D%23615846%3BstrokeColor%3Dnone%3BfontSize%3D22%3B%22%20vertex%3D%221%22%20parent%3D%221%22%3E%3CmxGeometry%20x%3D%222230%22%20y%3D%22555%22%20width%3D%2220%22%20height%3D%22180%22%20as%3D%22geometry%22%2F%3E%3C%2FmxCell%3E%3C%2Froot%3E%3C%2FmxGraphModel%3E&lt;/span&gt;" style="rounded=1;whiteSpace=wrap;html=1;fillColor=#615846;strokeColor=none;fontSize=22;fontColor=#A19274;" parent="LaclUSlcc0hQrI3n_9na-35" vertex="1">
          <mxGeometry x="770" y="620" width="20" height="60" as="geometry" />
        </mxCell>
        <mxCell id="-39sxVK61BPySdERtqr_-3" value="" style="shape=flexArrow;endArrow=classic;html=1;rounded=0;fontSize=18;fontColor=#000000;strokeWidth=2;endWidth=10.666666666666666;endSize=5.066666666666666;" parent="LaclUSlcc0hQrI3n_9na-35" edge="1">
          <mxGeometry width="50" height="50" relative="1" as="geometry">
            <mxPoint x="779.8299999999999" y="625" as="sourcePoint" />
            <mxPoint x="779.8299999999999" y="595" as="targetPoint" />
          </mxGeometry>
        </mxCell>
        <mxCell id="-39sxVK61BPySdERtqr_-4" value="" style="shape=flexArrow;endArrow=classic;html=1;rounded=0;fontSize=18;fontColor=#000000;strokeWidth=2;endWidth=10.666666666666666;endSize=5.066666666666666;" parent="LaclUSlcc0hQrI3n_9na-35" edge="1">
          <mxGeometry width="50" height="50" relative="1" as="geometry">
            <mxPoint x="609.8599999999999" y="550" as="sourcePoint" />
            <mxPoint x="609.8599999999999" y="520" as="targetPoint" />
          </mxGeometry>
        </mxCell>
        <mxCell id="-39sxVK61BPySdERtqr_-5" value="" style="shape=flexArrow;endArrow=classic;html=1;rounded=0;fontSize=18;fontColor=#000000;strokeWidth=2;endWidth=10.666666666666666;endSize=5.066666666666666;" parent="LaclUSlcc0hQrI3n_9na-35" edge="1">
          <mxGeometry width="50" height="50" relative="1" as="geometry">
            <mxPoint x="649.8" y="760" as="sourcePoint" />
            <mxPoint x="649.8" y="730" as="targetPoint" />
          </mxGeometry>
        </mxCell>
        <mxCell id="-39sxVK61BPySdERtqr_-6" value="" style="shape=flexArrow;endArrow=classic;html=1;rounded=0;fontSize=18;fontColor=#000000;strokeWidth=2;endWidth=10.666666666666666;endSize=5.066666666666666;" parent="LaclUSlcc0hQrI3n_9na-35" edge="1">
          <mxGeometry width="50" height="50" relative="1" as="geometry">
            <mxPoint x="1160" y="960" as="sourcePoint" />
            <mxPoint x="1160" y="930" as="targetPoint" />
          </mxGeometry>
        </mxCell>
        <mxCell id="-39sxVK61BPySdERtqr_-9" value="" style="shape=flexArrow;endArrow=classic;html=1;rounded=0;fontSize=18;fontColor=#000000;strokeWidth=2;endWidth=10.666666666666666;endSize=5.066666666666666;" parent="LaclUSlcc0hQrI3n_9na-35" edge="1">
          <mxGeometry width="50" height="50" relative="1" as="geometry">
            <mxPoint x="1010" y="590" as="sourcePoint" />
            <mxPoint x="1010" y="620" as="targetPoint" />
          </mxGeometry>
        </mxCell>
        <mxCell id="-39sxVK61BPySdERtqr_-10" value="" style="shape=flexArrow;endArrow=classic;html=1;rounded=0;fontSize=18;fontColor=#000000;strokeWidth=2;endWidth=10.666666666666666;endSize=5.066666666666666;" parent="LaclUSlcc0hQrI3n_9na-35" edge="1">
          <mxGeometry width="50" height="50" relative="1" as="geometry">
            <mxPoint x="710" y="590" as="sourcePoint" />
            <mxPoint x="710" y="620" as="targetPoint" />
          </mxGeometry>
        </mxCell>
        <mxCell id="-39sxVK61BPySdERtqr_-11" value="" style="shape=flexArrow;endArrow=classic;html=1;rounded=0;fontSize=18;fontColor=#000000;strokeWidth=2;endWidth=10.666666666666666;endSize=5.066666666666666;" parent="LaclUSlcc0hQrI3n_9na-35" edge="1">
          <mxGeometry width="50" height="50" relative="1" as="geometry">
            <mxPoint x="820" y="450" as="sourcePoint" />
            <mxPoint x="820" y="480" as="targetPoint" />
          </mxGeometry>
        </mxCell>
        <mxCell id="-39sxVK61BPySdERtqr_-12" value="" style="shape=flexArrow;endArrow=classic;html=1;rounded=0;fontSize=18;fontColor=#000000;strokeWidth=2;endWidth=10.666666666666666;endSize=5.066666666666666;" parent="LaclUSlcc0hQrI3n_9na-35" edge="1">
          <mxGeometry width="50" height="50" relative="1" as="geometry">
            <mxPoint x="609.8" y="990" as="sourcePoint" />
            <mxPoint x="609.8" y="1020" as="targetPoint" />
          </mxGeometry>
        </mxCell>
        <mxCell id="5bJrnLdc6OhZSwj7DBK4-36" value="Cistern" style="rounded=1;whiteSpace=wrap;html=1;fillColor=#615846;strokeColor=none;fontSize=22;fontColor=#000000;" parent="LaclUSlcc0hQrI3n_9na-35" vertex="1">
          <mxGeometry x="710" y="750" width="110" height="95" as="geometry" />
        </mxCell>
        <mxCell id="5bJrnLdc6OhZSwj7DBK4-37" value="Research&lt;br&gt;Hall" style="rounded=1;whiteSpace=wrap;html=1;fillColor=#615846;strokeColor=none;fontSize=22;fontColor=#000000;" parent="LaclUSlcc0hQrI3n_9na-35" vertex="1">
          <mxGeometry x="410" y="545" width="110" height="95" as="geometry" />
        </mxCell>
        <mxCell id="5bJrnLdc6OhZSwj7DBK4-38" value="Body Pit" style="rounded=1;whiteSpace=wrap;html=1;fillColor=#615846;strokeColor=none;fontSize=22;fontColor=#000000;" parent="LaclUSlcc0hQrI3n_9na-35" vertex="1">
          <mxGeometry x="480" y="640" width="110" height="95" as="geometry" />
        </mxCell>
        <mxCell id="5bJrnLdc6OhZSwj7DBK4-40" value="&lt;span style=&quot;font-family: monospace; font-size: 0px;&quot;&gt;%3CmxGraphModel%3E%3Croot%3E%3CmxCell%20id%3D%220%22%2F%3E%3CmxCell%20id%3D%221%22%20parent%3D%220%22%2F%3E%3CmxCell%20id%3D%222%22%20value%3D%22%22%20style%3D%22rounded%3D1%3BwhiteSpace%3Dwrap%3Bhtml%3D1%3BfillColor%3D%23615846%3BstrokeColor%3Dnone%3BfontSize%3D22%3B%22%20vertex%3D%221%22%20parent%3D%221%22%3E%3CmxGeometry%20x%3D%222230%22%20y%3D%22555%22%20width%3D%2220%22%20height%3D%22180%22%20as%3D%22geometry%22%2F%3E%3C%2FmxCell%3E%3C%2Froot%3E%3C%2FmxGraphModel%3E&lt;/span&gt;" style="rounded=1;whiteSpace=wrap;html=1;fillColor=#615846;strokeColor=none;fontSize=22;fontColor=#A19274;" parent="LaclUSlcc0hQrI3n_9na-35" vertex="1">
          <mxGeometry x="370" y="490" width="20" height="80" as="geometry" />
        </mxCell>
        <mxCell id="5bJrnLdc6OhZSwj7DBK4-41" value="&lt;span style=&quot;font-family: monospace; font-size: 0px;&quot;&gt;%3CmxGraphModel%3E%3Croot%3E%3CmxCell%20id%3D%220%22%2F%3E%3CmxCell%20id%3D%221%22%20parent%3D%220%22%2F%3E%3CmxCell%20id%3D%222%22%20value%3D%22%22%20style%3D%22rounded%3D1%3BwhiteSpace%3Dwrap%3Bhtml%3D1%3BfillColor%3D%23615846%3BstrokeColor%3Dnone%3BfontSize%3D22%3B%22%20vertex%3D%221%22%20parent%3D%221%22%3E%3CmxGeometry%20x%3D%222230%22%20y%3D%22555%22%20width%3D%2220%22%20height%3D%22180%22%20as%3D%22geometry%22%2F%3E%3C%2FmxCell%3E%3C%2Froot%3E%3C%2FmxGraphModel%3E&lt;/span&gt;" style="rounded=1;whiteSpace=wrap;html=1;fillColor=#615846;strokeColor=none;fontSize=22;fontColor=#A19274;" parent="LaclUSlcc0hQrI3n_9na-35" vertex="1">
          <mxGeometry x="540" y="730" width="20" height="190" as="geometry" />
        </mxCell>
        <mxCell id="5bJrnLdc6OhZSwj7DBK4-42" value="&lt;span style=&quot;font-family: monospace; font-size: 0px;&quot;&gt;%3CmxGraphModel%3E%3Croot%3E%3CmxCell%20id%3D%220%22%2F%3E%3CmxCell%20id%3D%221%22%20parent%3D%220%22%2F%3E%3CmxCell%20id%3D%222%22%20value%3D%22%22%20style%3D%22rounded%3D1%3BwhiteSpace%3Dwrap%3Bhtml%3D1%3BfillColor%3D%23615846%3BstrokeColor%3Dnone%3BfontSize%3D22%3B%22%20vertex%3D%221%22%20parent%3D%221%22%3E%3CmxGeometry%20x%3D%222230%22%20y%3D%22555%22%20width%3D%2220%22%20height%3D%22180%22%20as%3D%22geometry%22%2F%3E%3C%2FmxCell%3E%3C%2Froot%3E%3C%2FmxGraphModel%3E&lt;/span&gt;" style="rounded=1;whiteSpace=wrap;html=1;fillColor=#615846;strokeColor=none;fontSize=22;fontColor=#A19274;" parent="LaclUSlcc0hQrI3n_9na-35" vertex="1">
          <mxGeometry x="540" y="900" width="70" height="20" as="geometry" />
        </mxCell>
        <mxCell id="5bJrnLdc6OhZSwj7DBK4-43" value="&lt;span style=&quot;font-family: monospace; font-size: 0px;&quot;&gt;%3CmxGraphModel%3E%3Croot%3E%3CmxCell%20id%3D%220%22%2F%3E%3CmxCell%20id%3D%221%22%20parent%3D%220%22%2F%3E%3CmxCell%20id%3D%222%22%20value%3D%22%22%20style%3D%22rounded%3D1%3BwhiteSpace%3Dwrap%3Bhtml%3D1%3BfillColor%3D%23615846%3BstrokeColor%3Dnone%3BfontSize%3D22%3B%22%20vertex%3D%221%22%20parent%3D%221%22%3E%3CmxGeometry%20x%3D%222230%22%20y%3D%22555%22%20width%3D%2220%22%20height%3D%22180%22%20as%3D%22geometry%22%2F%3E%3C%2FmxCell%3E%3C%2Froot%3E%3C%2FmxGraphModel%3E&lt;/span&gt;" style="rounded=1;whiteSpace=wrap;html=1;fillColor=#615846;strokeColor=none;fontSize=22;fontColor=#A19274;" parent="LaclUSlcc0hQrI3n_9na-35" vertex="1">
          <mxGeometry x="540" y="580" width="20" height="70" as="geometry" />
        </mxCell>
        <mxCell id="5bJrnLdc6OhZSwj7DBK4-44" value="&lt;span style=&quot;font-family: monospace; font-size: 0px;&quot;&gt;%3CmxGraphModel%3E%3Croot%3E%3CmxCell%20id%3D%220%22%2F%3E%3CmxCell%20id%3D%221%22%20parent%3D%220%22%2F%3E%3CmxCell%20id%3D%222%22%20value%3D%22%22%20style%3D%22rounded%3D1%3BwhiteSpace%3Dwrap%3Bhtml%3D1%3BfillColor%3D%23615846%3BstrokeColor%3Dnone%3BfontSize%3D22%3B%22%20vertex%3D%221%22%20parent%3D%221%22%3E%3CmxGeometry%20x%3D%222230%22%20y%3D%22555%22%20width%3D%2220%22%20height%3D%22180%22%20as%3D%22geometry%22%2F%3E%3C%2FmxCell%3E%3C%2Froot%3E%3C%2FmxGraphModel%3E&lt;/span&gt;" style="rounded=1;whiteSpace=wrap;html=1;fillColor=#615846;strokeColor=none;fontSize=22;fontColor=#A19274;" parent="LaclUSlcc0hQrI3n_9na-35" vertex="1">
          <mxGeometry x="515" y="580" width="45" height="20" as="geometry" />
        </mxCell>
        <mxCell id="5bJrnLdc6OhZSwj7DBK4-45" value="&lt;span style=&quot;font-family: monospace; font-size: 0px;&quot;&gt;%3CmxGraphModel%3E%3Croot%3E%3CmxCell%20id%3D%220%22%2F%3E%3CmxCell%20id%3D%221%22%20parent%3D%220%22%2F%3E%3CmxCell%20id%3D%222%22%20value%3D%22%22%20style%3D%22rounded%3D1%3BwhiteSpace%3Dwrap%3Bhtml%3D1%3BfillColor%3D%23615846%3BstrokeColor%3Dnone%3BfontSize%3D22%3B%22%20vertex%3D%221%22%20parent%3D%221%22%3E%3CmxGeometry%20x%3D%222230%22%20y%3D%22555%22%20width%3D%2220%22%20height%3D%22180%22%20as%3D%22geometry%22%2F%3E%3C%2FmxCell%3E%3C%2Froot%3E%3C%2FmxGraphModel%3E&lt;/span&gt;" style="rounded=1;whiteSpace=wrap;html=1;fillColor=#615846;strokeColor=none;fontSize=22;fontColor=#A19274;" parent="LaclUSlcc0hQrI3n_9na-35" vertex="1">
          <mxGeometry x="370" y="560" width="45" height="20" as="geometry" />
        </mxCell>
        <mxCell id="5bJrnLdc6OhZSwj7DBK4-46" value="&lt;span style=&quot;font-family: monospace; font-size: 0px;&quot;&gt;%3CmxGraphModel%3E%3Croot%3E%3CmxCell%20id%3D%220%22%2F%3E%3CmxCell%20id%3D%221%22%20parent%3D%220%22%2F%3E%3CmxCell%20id%3D%222%22%20value%3D%22%22%20style%3D%22rounded%3D1%3BwhiteSpace%3Dwrap%3Bhtml%3D1%3BfillColor%3D%23615846%3BstrokeColor%3Dnone%3BfontSize%3D22%3B%22%20vertex%3D%221%22%20parent%3D%221%22%3E%3CmxGeometry%20x%3D%222230%22%20y%3D%22555%22%20width%3D%2220%22%20height%3D%22180%22%20as%3D%22geometry%22%2F%3E%3C%2FmxCell%3E%3C%2Froot%3E%3C%2FmxGraphModel%3E&lt;/span&gt;" style="rounded=1;whiteSpace=wrap;html=1;fillColor=#615846;strokeColor=none;fontSize=22;fontColor=#A19274;" parent="LaclUSlcc0hQrI3n_9na-35" vertex="1">
          <mxGeometry x="440" y="635" width="20" height="105" as="geometry" />
        </mxCell>
        <mxCell id="LaclUSlcc0hQrI3n_9na-1" value="" style="rounded=1;whiteSpace=wrap;html=1;fillColor=#615846;strokeColor=none;fontColor=#A19274;" parent="1" vertex="1">
          <mxGeometry x="2060" y="170" width="30" height="220" as="geometry" />
        </mxCell>
        <mxCell id="LaclUSlcc0hQrI3n_9na-2" value="" style="rounded=1;whiteSpace=wrap;html=1;fillColor=#615846;strokeColor=none;fontColor=#A19274;" parent="1" vertex="1">
          <mxGeometry x="1760" y="170" width="30" height="220" as="geometry" />
        </mxCell>
        <mxCell id="LaclUSlcc0hQrI3n_9na-3" value="" style="rounded=1;whiteSpace=wrap;html=1;fillColor=#615846;strokeColor=none;fontColor=#A19274;" parent="1" vertex="1">
          <mxGeometry x="1870" y="170" width="30" height="80" as="geometry" />
        </mxCell>
        <mxCell id="LaclUSlcc0hQrI3n_9na-4" value="Mine" style="rounded=1;whiteSpace=wrap;html=1;fillColor=#615846;strokeColor=none;fontSize=22;fontColor=#000000;" parent="1" vertex="1">
          <mxGeometry x="1720" y="-50" width="260" height="230" as="geometry" />
        </mxCell>
        <mxCell id="LaclUSlcc0hQrI3n_9na-5" value="Mine (Flooded)" style="rounded=1;whiteSpace=wrap;html=1;fillColor=#877B61;strokeColor=none;fontSize=22;fontColor=#000000;" parent="1" vertex="1">
          <mxGeometry x="1950" y="70" width="280" height="110" as="geometry" />
        </mxCell>
        <mxCell id="LaclUSlcc0hQrI3n_9na-6" value="&lt;br style=&quot;font-size: 22px&quot;&gt;&lt;br style=&quot;font-size: 22px&quot;&gt;&lt;br style=&quot;font-size: 22px&quot;&gt;&lt;br style=&quot;font-size: 22px&quot;&gt;&lt;br style=&quot;font-size: 22px&quot;&gt;Silver Sea" style="rounded=1;whiteSpace=wrap;html=1;fillColor=#69797D;strokeColor=none;fontSize=22;fontColor=#000000;" parent="1" vertex="1">
          <mxGeometry x="2050" y="-440" width="370" height="510" as="geometry" />
        </mxCell>
        <mxCell id="LaclUSlcc0hQrI3n_9na-7" value="Lost City" style="rounded=1;whiteSpace=wrap;html=1;fillColor=#615846;strokeColor=none;fontSize=22;fontColor=#000000;" parent="1" vertex="1">
          <mxGeometry x="2130" y="-440" width="220" height="260" as="geometry" />
        </mxCell>
        <mxCell id="LaclUSlcc0hQrI3n_9na-33" value="Silver Sea Shore&lt;br style=&quot;font-size: 22px&quot;&gt;&lt;font style=&quot;font-size: 18px&quot;&gt;(Connects to Estate)&lt;/font&gt;" style="rounded=1;whiteSpace=wrap;html=1;fillColor=#877B61;strokeColor=none;fontSize=22;fontColor=#000000;" parent="1" vertex="1">
          <mxGeometry x="1960" y="-250" width="90" height="200" as="geometry" />
        </mxCell>
        <mxCell id="-39sxVK61BPySdERtqr_-7" value="" style="shape=flexArrow;endArrow=classic;html=1;rounded=0;fontSize=18;fontColor=#000000;strokeWidth=2;endWidth=10.666666666666666;endSize=5.066666666666666;" parent="1" edge="1">
          <mxGeometry width="50" height="50" relative="1" as="geometry">
            <mxPoint x="1970" y="-240" as="sourcePoint" />
            <mxPoint x="1970" y="-270" as="targetPoint" />
          </mxGeometry>
        </mxCell>
        <mxCell id="5bJrnLdc6OhZSwj7DBK4-39" value="" style="shape=flexArrow;endArrow=classic;html=1;rounded=0;fontSize=18;fontColor=#000000;strokeWidth=2;endWidth=10.666666666666666;endSize=5.066666666666666;" parent="1" edge="1">
          <mxGeometry width="50" height="50" relative="1" as="geometry">
            <mxPoint x="1439.8599999999997" y="290" as="sourcePoint" />
            <mxPoint x="1439.8599999999997" y="260" as="targetPoint" />
          </mxGeometry>
        </mxCell>
        <mxCell id="5bJrnLdc6OhZSwj7DBK4-47" value="" style="shape=flexArrow;endArrow=classic;html=1;rounded=0;fontSize=18;fontColor=#000000;strokeWidth=2;endWidth=10.666666666666666;endSize=5.066666666666666;" parent="1" edge="1">
          <mxGeometry width="50" height="50" relative="1" as="geometry">
            <mxPoint x="1510.8" y="545" as="sourcePoint" />
            <mxPoint x="1510.8" y="515" as="targetPoint" />
          </mxGeometry>
        </mxCell>
      </root>
    </mxGraphModel>
  </diagram>
  <diagram id="BRWSHlaSHr68cqjaitHX" name="Page-3">
    <mxGraphModel dx="1900" dy="2821" grid="1" gridSize="10" guides="1" tooltips="1" connect="1" arrows="0" fold="1" page="1" pageScale="1" pageWidth="850" pageHeight="1100" math="0" shadow="0">
      <root>
        <mxCell id="0" />
        <mxCell id="1" parent="0" />
        <mxCell id="y7ExrD23VPvLcg61ZoRe-1" value="City" style="rounded=1;whiteSpace=wrap;html=1;fillColor=#A39476;strokeColor=none;fontSize=22;" parent="1" vertex="1">
          <mxGeometry x="1480" y="510" width="470" height="270" as="geometry" />
        </mxCell>
        <mxCell id="y7ExrD23VPvLcg61ZoRe-2" value="Tombwater Station" style="rounded=1;whiteSpace=wrap;html=1;fillColor=#615846;strokeColor=none;fontSize=22;" parent="1" vertex="1">
          <mxGeometry x="1480" y="510" width="140" height="200" as="geometry" />
        </mxCell>
        <mxCell id="dAC7YyU4IVjJOhfW8gD6-16" style="edgeStyle=orthogonalEdgeStyle;rounded=0;orthogonalLoop=1;jettySize=auto;html=1;exitX=0.75;exitY=1;exitDx=0;exitDy=0;entryX=0;entryY=0.5;entryDx=0;entryDy=0;" parent="1" source="y7ExrD23VPvLcg61ZoRe-3" target="y7ExrD23VPvLcg61ZoRe-36" edge="1">
          <mxGeometry relative="1" as="geometry" />
        </mxCell>
        <mxCell id="y7ExrD23VPvLcg61ZoRe-3" value="Canyon" style="rounded=1;whiteSpace=wrap;html=1;fillColor=#A3703E;strokeColor=none;fontSize=22;" parent="1" vertex="1">
          <mxGeometry x="1450" y="930" width="610" height="100" as="geometry" />
        </mxCell>
        <mxCell id="y7ExrD23VPvLcg61ZoRe-4" value="Canyon" style="rounded=1;whiteSpace=wrap;html=1;fillColor=#A3703E;strokeColor=none;fontSize=22;" parent="1" vertex="1">
          <mxGeometry x="1990" y="370" width="130" height="660" as="geometry" />
        </mxCell>
        <mxCell id="dAC7YyU4IVjJOhfW8gD6-18" style="edgeStyle=orthogonalEdgeStyle;rounded=0;orthogonalLoop=1;jettySize=auto;html=1;exitX=0.25;exitY=1;exitDx=0;exitDy=0;entryX=0.5;entryY=0;entryDx=0;entryDy=0;" parent="1" source="y7ExrD23VPvLcg61ZoRe-5" target="U31-K8SAjryF79X9_EA9-2" edge="1">
          <mxGeometry relative="1" as="geometry" />
        </mxCell>
        <mxCell id="y7ExrD23VPvLcg61ZoRe-5" value="Scrubland / Desert" style="rounded=1;whiteSpace=wrap;html=1;fillColor=#C2A659;strokeColor=none;fontSize=22;" parent="1" vertex="1">
          <mxGeometry x="1060" y="500" width="405" height="520" as="geometry" />
        </mxCell>
        <mxCell id="PVgypgHmpQFGBxJ7ayfC-3" style="edgeStyle=orthogonalEdgeStyle;rounded=0;orthogonalLoop=1;jettySize=auto;html=1;exitX=0;exitY=0.5;exitDx=0;exitDy=0;entryX=0.5;entryY=1;entryDx=0;entryDy=0;" edge="1" parent="1" source="y7ExrD23VPvLcg61ZoRe-6" target="Avr4taE0nrmb-lPB2ZS--1">
          <mxGeometry relative="1" as="geometry" />
        </mxCell>
        <mxCell id="y7ExrD23VPvLcg61ZoRe-6" value="Lake" style="rounded=1;whiteSpace=wrap;html=1;fillColor=#2C8274;strokeColor=none;fontSize=22;" parent="1" vertex="1">
          <mxGeometry x="1080" y="-110" width="440" height="590" as="geometry" />
        </mxCell>
        <mxCell id="PVgypgHmpQFGBxJ7ayfC-5" style="edgeStyle=orthogonalEdgeStyle;rounded=0;orthogonalLoop=1;jettySize=auto;html=1;exitX=0;exitY=0.75;exitDx=0;exitDy=0;" edge="1" parent="1" source="y7ExrD23VPvLcg61ZoRe-7" target="U31-K8SAjryF79X9_EA9-7">
          <mxGeometry relative="1" as="geometry" />
        </mxCell>
        <mxCell id="y7ExrD23VPvLcg61ZoRe-7" value="Lake District" style="rounded=1;whiteSpace=wrap;html=1;fillColor=#A39476;strokeColor=none;fontSize=22;" parent="1" vertex="1">
          <mxGeometry x="1460" y="-40" width="310" height="390" as="geometry" />
        </mxCell>
        <mxCell id="U31-K8SAjryF79X9_EA9-4" style="edgeStyle=orthogonalEdgeStyle;rounded=0;orthogonalLoop=1;jettySize=auto;html=1;exitX=1;exitY=0.75;exitDx=0;exitDy=0;" parent="1" source="y7ExrD23VPvLcg61ZoRe-8" target="U31-K8SAjryF79X9_EA9-5" edge="1">
          <mxGeometry relative="1" as="geometry">
            <mxPoint x="2750" y="1050" as="targetPoint" />
          </mxGeometry>
        </mxCell>
        <mxCell id="y7ExrD23VPvLcg61ZoRe-8" value="Graveyard" style="rounded=1;whiteSpace=wrap;html=1;fillColor=#C2B98C;strokeColor=none;fontSize=22;" parent="1" vertex="1">
          <mxGeometry x="2110" y="710" width="260" height="200" as="geometry" />
        </mxCell>
        <mxCell id="y7ExrD23VPvLcg61ZoRe-37" style="edgeStyle=orthogonalEdgeStyle;rounded=0;orthogonalLoop=1;jettySize=auto;html=1;exitX=1;exitY=0.75;exitDx=0;exitDy=0;" parent="1" source="y7ExrD23VPvLcg61ZoRe-9" target="y7ExrD23VPvLcg61ZoRe-38" edge="1">
          <mxGeometry relative="1" as="geometry">
            <mxPoint x="3220" y="498" as="targetPoint" />
          </mxGeometry>
        </mxCell>
        <mxCell id="y7ExrD23VPvLcg61ZoRe-9" value="Pine Forest" style="rounded=1;whiteSpace=wrap;html=1;fillColor=#47821F;strokeColor=none;fontSize=22;" parent="1" vertex="1">
          <mxGeometry x="2190" y="160" width="230" height="450" as="geometry" />
        </mxCell>
        <mxCell id="U31-K8SAjryF79X9_EA9-12" style="edgeStyle=orthogonalEdgeStyle;rounded=0;orthogonalLoop=1;jettySize=auto;html=1;exitX=1;exitY=0.5;exitDx=0;exitDy=0;" parent="1" source="y7ExrD23VPvLcg61ZoRe-10" target="U31-K8SAjryF79X9_EA9-13" edge="1">
          <mxGeometry relative="1" as="geometry">
            <mxPoint x="2820" y="39.571428571428896" as="targetPoint" />
          </mxGeometry>
        </mxCell>
        <mxCell id="y7ExrD23VPvLcg61ZoRe-10" value="Estate" style="rounded=1;whiteSpace=wrap;html=1;fillColor=#C2B98C;strokeColor=none;fontSize=22;" parent="1" vertex="1">
          <mxGeometry x="1920" y="-70" width="440" height="220" as="geometry" />
        </mxCell>
        <mxCell id="U31-K8SAjryF79X9_EA9-11" style="edgeStyle=orthogonalEdgeStyle;rounded=0;orthogonalLoop=1;jettySize=auto;html=1;exitX=0.5;exitY=1;exitDx=0;exitDy=0;entryX=0;entryY=0.5;entryDx=0;entryDy=0;" parent="1" source="y7ExrD23VPvLcg61ZoRe-11" target="U31-K8SAjryF79X9_EA9-9" edge="1">
          <mxGeometry relative="1" as="geometry" />
        </mxCell>
        <mxCell id="y7ExrD23VPvLcg61ZoRe-11" value="Canyon Settlement" style="rounded=1;whiteSpace=wrap;html=1;fillColor=#75673F;strokeColor=none;fontSize=22;" parent="1" vertex="1">
          <mxGeometry x="1630" y="770" width="380" height="160" as="geometry" />
        </mxCell>
        <mxCell id="U31-K8SAjryF79X9_EA9-26" style="edgeStyle=orthogonalEdgeStyle;rounded=0;orthogonalLoop=1;jettySize=auto;html=1;exitX=1;exitY=0.25;exitDx=0;exitDy=0;" parent="1" source="y7ExrD23VPvLcg61ZoRe-12" target="U31-K8SAjryF79X9_EA9-27" edge="1">
          <mxGeometry relative="1" as="geometry">
            <mxPoint x="2680" y="637.666666666667" as="targetPoint" />
          </mxGeometry>
        </mxCell>
        <mxCell id="y7ExrD23VPvLcg61ZoRe-12" value="Scrubland / Desert" style="rounded=1;whiteSpace=wrap;html=1;fillColor=#C2A659;strokeColor=none;fontSize=22;" parent="1" vertex="1">
          <mxGeometry x="2130" y="610" width="290" height="110" as="geometry" />
        </mxCell>
        <mxCell id="dAC7YyU4IVjJOhfW8gD6-17" style="edgeStyle=orthogonalEdgeStyle;rounded=0;orthogonalLoop=1;jettySize=auto;html=1;exitX=1;exitY=0.25;exitDx=0;exitDy=0;entryX=0;entryY=0.5;entryDx=0;entryDy=0;" parent="1" source="y7ExrD23VPvLcg61ZoRe-13" target="U31-K8SAjryF79X9_EA9-24" edge="1">
          <mxGeometry relative="1" as="geometry" />
        </mxCell>
        <mxCell id="y7ExrD23VPvLcg61ZoRe-13" value="Mining Camp" style="rounded=1;whiteSpace=wrap;html=1;fillColor=#C2A659;strokeColor=none;fontSize=22;" parent="1" vertex="1">
          <mxGeometry x="1710" y="230" width="280" height="230" as="geometry" />
        </mxCell>
        <mxCell id="y7ExrD23VPvLcg61ZoRe-14" value="Mine&lt;br style=&quot;font-size: 22px;&quot;&gt;Trail" style="rounded=1;whiteSpace=wrap;html=1;fillColor=#75673F;strokeColor=none;fontSize=22;" parent="1" vertex="1">
          <mxGeometry x="1940" y="380" width="50" height="400" as="geometry" />
        </mxCell>
        <mxCell id="y7ExrD23VPvLcg61ZoRe-15" value="Bridge" style="rounded=1;whiteSpace=wrap;html=1;fillColor=#615846;strokeColor=none;fontSize=22;" parent="1" vertex="1">
          <mxGeometry x="1930" y="630" width="220" height="60" as="geometry" />
        </mxCell>
        <mxCell id="PVgypgHmpQFGBxJ7ayfC-1" style="edgeStyle=orthogonalEdgeStyle;rounded=0;orthogonalLoop=1;jettySize=auto;html=1;exitX=0.5;exitY=0;exitDx=0;exitDy=0;entryX=0.5;entryY=1;entryDx=0;entryDy=0;" edge="1" parent="1" source="y7ExrD23VPvLcg61ZoRe-16" target="y7ExrD23VPvLcg61ZoRe-30">
          <mxGeometry relative="1" as="geometry" />
        </mxCell>
        <mxCell id="y7ExrD23VPvLcg61ZoRe-16" value="Dig Site" style="rounded=1;whiteSpace=wrap;html=1;fillColor=#A3703E;strokeColor=none;fontSize=22;" parent="1" vertex="1">
          <mxGeometry x="1230" y="-340" width="210" height="230" as="geometry" />
        </mxCell>
        <mxCell id="y7ExrD23VPvLcg61ZoRe-17" value="" style="rounded=1;whiteSpace=wrap;html=1;fillColor=#A3703E;strokeColor=none;fontSize=22;" parent="1" vertex="1">
          <mxGeometry x="1720" y="450" width="50" height="70" as="geometry" />
        </mxCell>
        <mxCell id="dAC7YyU4IVjJOhfW8gD6-3" style="edgeStyle=orthogonalEdgeStyle;rounded=0;orthogonalLoop=1;jettySize=auto;html=1;exitX=0;exitY=0.75;exitDx=0;exitDy=0;" parent="1" source="y7ExrD23VPvLcg61ZoRe-19" target="dAC7YyU4IVjJOhfW8gD6-4" edge="1">
          <mxGeometry relative="1" as="geometry">
            <mxPoint x="590" y="990.3333333333339" as="targetPoint" />
          </mxGeometry>
        </mxCell>
        <mxCell id="y7ExrD23VPvLcg61ZoRe-19" value="Mesa Ruins" style="rounded=1;whiteSpace=wrap;html=1;fillColor=#A3703E;strokeColor=none;fontSize=22;" parent="1" vertex="1">
          <mxGeometry x="880" y="820" width="265" height="200" as="geometry" />
        </mxCell>
        <mxCell id="y7ExrD23VPvLcg61ZoRe-20" value="Dark Forest" style="rounded=1;whiteSpace=wrap;html=1;fillColor=#75673F;strokeColor=none;fontSize=22;" parent="1" vertex="1">
          <mxGeometry x="1030" y="-110" width="310" height="240" as="geometry" />
        </mxCell>
        <mxCell id="U31-K8SAjryF79X9_EA9-19" style="edgeStyle=orthogonalEdgeStyle;rounded=0;orthogonalLoop=1;jettySize=auto;html=1;exitX=0.5;exitY=1;exitDx=0;exitDy=0;entryX=0.25;entryY=0;entryDx=0;entryDy=0;" parent="1" source="y7ExrD23VPvLcg61ZoRe-22" target="U31-K8SAjryF79X9_EA9-15" edge="1">
          <mxGeometry relative="1" as="geometry" />
        </mxCell>
        <mxCell id="y7ExrD23VPvLcg61ZoRe-22" value="Argent Cathedral" style="rounded=1;whiteSpace=wrap;html=1;fillColor=#615846;strokeColor=none;fontSize=22;" parent="1" vertex="1">
          <mxGeometry x="1780" y="450" width="160" height="210" as="geometry" />
        </mxCell>
        <mxCell id="y7ExrD23VPvLcg61ZoRe-31" style="edgeStyle=orthogonalEdgeStyle;rounded=0;orthogonalLoop=1;jettySize=auto;html=1;exitX=0.5;exitY=0;exitDx=0;exitDy=0;" parent="1" source="y7ExrD23VPvLcg61ZoRe-23" target="y7ExrD23VPvLcg61ZoRe-32" edge="1">
          <mxGeometry relative="1" as="geometry">
            <mxPoint x="1990" y="-950" as="targetPoint" />
          </mxGeometry>
        </mxCell>
        <mxCell id="y7ExrD23VPvLcg61ZoRe-23" value="Mountaintop" style="rounded=1;whiteSpace=wrap;html=1;fillColor=#91CACC;strokeColor=none;fontSize=22;" parent="1" vertex="1">
          <mxGeometry x="1680" y="-210" width="272.5" height="240" as="geometry" />
        </mxCell>
        <mxCell id="y7ExrD23VPvLcg61ZoRe-24" value="Pilgrim&lt;br&gt;Trail" style="rounded=1;whiteSpace=wrap;html=1;fillColor=#615846;strokeColor=none;fontSize=22;" parent="1" vertex="1">
          <mxGeometry x="1715" y="-10" width="80" height="270" as="geometry" />
        </mxCell>
        <mxCell id="y7ExrD23VPvLcg61ZoRe-30" value="&lt;b&gt;Dig Site&lt;/b&gt;&lt;br&gt;- Spanish Outpost (Lost Conquistador miniboss): Climbing Gear&lt;br&gt;- Spanish Settlement ruins, Conquistador Axe&lt;br&gt;- Settlement: Cannon&lt;br style=&quot;border-color: var(--border-color);&quot;&gt;- Underground tunnels:&amp;nbsp; Shard&lt;br&gt;- Stilton (boss), reward: Estate Key&lt;br&gt;- Beat Stilton (rematch): Stilton Ability (???)&lt;br&gt;- (possible) Revived Saint (miniboss), reward: Blood Rain spell" style="rounded=1;whiteSpace=wrap;html=1;" parent="1" vertex="1">
          <mxGeometry x="1030" y="-950" width="360" height="430" as="geometry" />
        </mxCell>
        <mxCell id="y7ExrD23VPvLcg61ZoRe-32" value="&lt;b&gt;Pilgrim Trail:&lt;/b&gt;&lt;br&gt;- Second Hawkson fight TODO: pick a reward&lt;br&gt;&lt;b&gt;Mountaintop&lt;/b&gt;&lt;br&gt;- Chapel: Sheriff (boss), reward: sealing artifact&lt;br&gt;- Chapel: Catalina (boss)(if you defeated sheriff without befriending her), reward: Catalina&#39;s fire sword&lt;br&gt;- Bandolier Strap" style="rounded=1;whiteSpace=wrap;html=1;" parent="1" vertex="1">
          <mxGeometry x="1130" y="-1330" width="320" height="420" as="geometry" />
        </mxCell>
        <mxCell id="y7ExrD23VPvLcg61ZoRe-34" value="&lt;b&gt;Central Tombwater&lt;/b&gt;:&amp;nbsp;&lt;br&gt;- Commerative Founding Fountain&lt;br&gt;- Gallows: Flask Shard&lt;br&gt;- Emmaline Scrub Apothecary&lt;br&gt;- General Store/Gun Store, reward: Final Bullet charm&lt;br&gt;- Blacksmith, reward: Rusty Sabre&amp;nbsp;&lt;br&gt;- Catalina&#39;s Hideout&lt;br&gt;- Clock Tower: after Hawkson tracks down the Crow, fight at the Clocktower - reward: Crow Swarm spell&amp;nbsp;&lt;br&gt;- Casket Workshop&lt;br&gt;- Post Office - quest: try and get this package out of town - reward: gradual heal charm&lt;br&gt;- Mirror House: a burned-down house with an ornate broken mirror to fight your reflection - reward: Wraith Ally Spell&lt;br&gt;- Endless well - reward: Visceral Sword&lt;br&gt;- Pit Creature shotcut to Physician Ward&lt;br&gt;- Deputy (boss), reward: Shotgun&lt;br&gt;&lt;br&gt;&lt;b&gt;Later Game:&lt;/b&gt;&lt;br&gt;- Lamplighter (miniboss) (on shortcut back from lake district), reward: Streetlamp weapon&lt;br&gt;- Catalina&#39;s hideout (requires hookshot)&lt;br&gt;- Photographer&#39;s house, camera monster, reward: Flashbulb spell/item&lt;br&gt;- False Hydra Saloon, reward: Yearning Sea spell&lt;br&gt;- Old Brewery: Healing Flask Shard&lt;br&gt;- Mad Stagecoach Final Battle, reward: Gatling Gun&lt;br&gt;- Rotten Water Tower (reward in cistern tunels)" style="rounded=1;whiteSpace=wrap;html=1;" parent="1" vertex="1">
          <mxGeometry x="1470" y="1630" width="590" height="550" as="geometry" />
        </mxCell>
        <mxCell id="y7ExrD23VPvLcg61ZoRe-36" value="&lt;b&gt;Canyon Floor&lt;/b&gt;:&lt;br&gt;- Wraith Charge Shot Ability&lt;br&gt;- First Cecil Mudd monster (relic reward)&lt;br&gt;- Gunsmith&lt;br&gt;- Crafting Book&lt;br&gt;- Mirror Shard&lt;br&gt;- Wraithblade Spell&lt;br&gt;&lt;br&gt;&lt;b&gt;Bridge:&lt;/b&gt;&lt;br&gt;- Barbed Wire Sword (Climbing Gear)" style="rounded=1;whiteSpace=wrap;html=1;" parent="1" vertex="1">
          <mxGeometry x="2080" y="1470" width="290" height="260" as="geometry" />
        </mxCell>
        <mxCell id="y7ExrD23VPvLcg61ZoRe-38" value="&lt;b&gt;Pine Forest&lt;br&gt;&lt;/b&gt;&lt;br&gt;- (before Vauxhall gate): Timber Axe&lt;br&gt;Cecil Mudd: second monster (significantly more eldritch), Catalina can help - reward: Seeking Worms&lt;br&gt;Puppet Maker - reward: Sawblade&lt;br&gt;- Soup Woman, reward: Deep Draught charm&lt;br&gt;-&amp;nbsp;&lt;span style=&quot;border-color: var(--border-color);&quot;&gt;Mad Stagecoach encounter spot&lt;/span&gt;" style="rounded=1;whiteSpace=wrap;html=1;" parent="1" vertex="1">
          <mxGeometry x="3010" y="230" width="360" height="410" as="geometry" />
        </mxCell>
        <mxCell id="dAC7YyU4IVjJOhfW8gD6-9" style="edgeStyle=orthogonalEdgeStyle;rounded=0;orthogonalLoop=1;jettySize=auto;html=1;exitX=0;exitY=0.5;exitDx=0;exitDy=0;entryX=0.5;entryY=0;entryDx=0;entryDy=0;" parent="1" source="N7bGJMpOtmksX_QmnUzV-1" target="dAC7YyU4IVjJOhfW8gD6-8" edge="1">
          <mxGeometry relative="1" as="geometry" />
        </mxCell>
        <mxCell id="N7bGJMpOtmksX_QmnUzV-1" value="Mine" style="rounded=1;whiteSpace=wrap;html=1;fillColor=#615846;strokeColor=none;fontSize=22;fontColor=#000000;" parent="1" vertex="1">
          <mxGeometry x="3000" y="-1180" width="550" height="470" as="geometry" />
        </mxCell>
        <mxCell id="N7bGJMpOtmksX_QmnUzV-2" value="Silver Sea" style="rounded=1;whiteSpace=wrap;html=1;fillColor=#006666;strokeColor=none;fontSize=22;fontColor=#000000;" parent="1" vertex="1">
          <mxGeometry x="3540" y="-2080" width="1260" height="1120" as="geometry" />
        </mxCell>
        <mxCell id="dAC7YyU4IVjJOhfW8gD6-10" style="edgeStyle=orthogonalEdgeStyle;rounded=0;orthogonalLoop=1;jettySize=auto;html=1;exitX=1;exitY=0.5;exitDx=0;exitDy=0;entryX=0;entryY=0.5;entryDx=0;entryDy=0;" parent="1" source="N7bGJMpOtmksX_QmnUzV-3" target="K-foicb0gG2Q-yPZn3BY-3" edge="1">
          <mxGeometry relative="1" as="geometry" />
        </mxCell>
        <mxCell id="N7bGJMpOtmksX_QmnUzV-3" value="Deep City&amp;nbsp;" style="rounded=1;whiteSpace=wrap;html=1;fillColor=#615846;strokeColor=none;fontSize=22;fontColor=#000000;" parent="1" vertex="1">
          <mxGeometry x="3730" y="-1610" width="550" height="470" as="geometry" />
        </mxCell>
        <mxCell id="dAC7YyU4IVjJOhfW8gD6-1" style="edgeStyle=orthogonalEdgeStyle;rounded=0;orthogonalLoop=1;jettySize=auto;html=1;exitX=0.5;exitY=1;exitDx=0;exitDy=0;" parent="1" source="N7bGJMpOtmksX_QmnUzV-4" target="dAC7YyU4IVjJOhfW8gD6-2" edge="1">
          <mxGeometry relative="1" as="geometry">
            <mxPoint x="3554.4285714285716" y="-200" as="targetPoint" />
          </mxGeometry>
        </mxCell>
        <mxCell id="N7bGJMpOtmksX_QmnUzV-4" value="Lower Ward" style="rounded=1;whiteSpace=wrap;html=1;fillColor=#615846;strokeColor=none;fontSize=22;fontColor=#000000;" parent="1" vertex="1">
          <mxGeometry x="3390" y="-640" width="330" height="320" as="geometry" />
        </mxCell>
        <mxCell id="vQlbXt2TBiZijxWW2C7v-1" value="Mausoleum" style="rounded=1;whiteSpace=wrap;html=1;fillColor=#615846;strokeColor=none;fontSize=22;fontColor=#000000;" parent="1" vertex="1">
          <mxGeometry x="4420" y="-680" width="440" height="340" as="geometry" />
        </mxCell>
        <mxCell id="U31-K8SAjryF79X9_EA9-28" style="edgeStyle=orthogonalEdgeStyle;rounded=0;orthogonalLoop=1;jettySize=auto;html=1;exitX=0.5;exitY=1;exitDx=0;exitDy=0;" parent="1" source="K-foicb0gG2Q-yPZn3BY-1" target="U31-K8SAjryF79X9_EA9-29" edge="1">
          <mxGeometry relative="1" as="geometry">
            <mxPoint x="4005.363636363636" y="50" as="targetPoint" />
          </mxGeometry>
        </mxCell>
        <mxCell id="K-foicb0gG2Q-yPZn3BY-1" value="Cistern" style="rounded=1;whiteSpace=wrap;html=1;fillColor=#615846;strokeColor=none;fontSize=22;fontColor=#000000;" parent="1" vertex="1">
          <mxGeometry x="3840" y="-750" width="330" height="310" as="geometry" />
        </mxCell>
        <mxCell id="K-foicb0gG2Q-yPZn3BY-3" value="&lt;b&gt;Deep City:&lt;/b&gt;&lt;br&gt;- If Cecil Mudd wasn&#39;t helped enough: find his broken-minded body here: Holy Greatsword (he was using it in battle all along)&lt;br&gt;- Firebreak Greater spell" style="rounded=1;whiteSpace=wrap;html=1;" parent="1" vertex="1">
          <mxGeometry x="4850" y="-1480" width="603" height="650" as="geometry" />
        </mxCell>
        <mxCell id="U31-K8SAjryF79X9_EA9-2" value="&lt;b&gt;Scrublands&lt;/b&gt;&lt;br&gt;- Gully, dry creek flowing from the dam and the canyon, reward: cactus skin spell&lt;br&gt;- Abandoned Garden where Adelaide used to play, reward: Charm stone&lt;br&gt;- Dead Cow Ranch, reward: branding iron, ox fist spell&lt;br&gt;- Hidden Grotto for growing herbs, reward: crafting book&lt;br&gt;- John Hawkson first monster assist: reward: lifecut charm&lt;br&gt;- If you choose not to show the feather to Hawkson, same place, fight the Crow after he&#39;s killed Hawkson. Reward: Crow Swarm spell&lt;br&gt;- Legendary Gun Schematic&lt;br&gt;- Omen Horseman, reward: Bounty Spell&lt;br&gt;- Forgotten Cave: Blackflame Arc spell&lt;br&gt;- Scarecrow Row, hidden reward: bandolier strap&lt;br&gt;- Rotting crop fields&lt;br&gt;-&amp;nbsp;&lt;span style=&quot;border-color: var(--border-color);&quot;&gt;Mad Stagecoach encounter spot&lt;br&gt;- Raised Tracks (accessible from Tombwater Station)&amp;nbsp;&lt;br&gt;- Rocky area (need hookshot), reward: Cactus Bat&lt;br&gt;- Hidden area (need silverwater pearl): Bonfire spell&lt;br&gt;&lt;/span&gt;" style="rounded=1;whiteSpace=wrap;html=1;" parent="1" vertex="1">
          <mxGeometry x="550" y="1330" width="510" height="480" as="geometry" />
        </mxCell>
        <mxCell id="U31-K8SAjryF79X9_EA9-5" value="&lt;b&gt;Graveyard&lt;/b&gt;&lt;br&gt;- (Right near entrance): Crafting Book&lt;br&gt;- (Near entrance): Shovel weapon&lt;br&gt;Crow Cowboy (first fight) - reward: crow feather (to advance quest)&lt;br&gt;- Mirror Shard&lt;br&gt;- Graveyard Sentinel miniboss, reward: Tombstone spell&lt;br&gt;- Ghost Caravan encounter, reward:&amp;nbsp; Wagon Wheel spell&lt;br&gt;&lt;br&gt;&lt;b&gt;Mausoleum:&lt;/b&gt;&lt;br&gt;- bones of a strange giant&lt;br&gt;- breakable wall: whisp lantern charm&lt;br&gt;- Vampire Sword (puzzle)&lt;br&gt;- Bandolier Strap&lt;br&gt;- Boss, Dead Man&#39;s Bullet upgrade&lt;br&gt;" style="rounded=1;whiteSpace=wrap;html=1;" parent="1" vertex="1">
          <mxGeometry x="2690" y="1020" width="390" height="380" as="geometry" />
        </mxCell>
        <mxCell id="U31-K8SAjryF79X9_EA9-7" value="&lt;b&gt;Lake District&lt;/b&gt;:&lt;br&gt;- Grand Saloon, Madame Tzu (Assassination Contracts) - rewards: 1) Charm Stone, 2) Warrior Health Charm 3) Ice Jian (Kill her): Chillstep&lt;br&gt;- Grand Saloon storage room, reward: Flask Silverdust&lt;br&gt;- Grand Hotel: First assassination contract, miniboss: Pinkerton Grenade Launcher guy, reward: grenade launcher&lt;br&gt;- Grand Hotel, insomniac who hints about the dream bed&lt;br&gt;- Grand Hotel: dream bed, reward: buff spell and buff melee spells&lt;br&gt;- Guy who is bones&lt;br&gt;- Locked House: Third Assassination contract&lt;br&gt;- Mayor&#39;s House, reward: Legendary Gun Schematic, Zeliska&lt;br&gt;- Untended Gardens, reward: grave coin charm&lt;br&gt;- Telegraph Office&lt;br&gt;- Theater: director miniboss - reward: dash deflect charm&lt;br&gt;- Dentist Office, reward: Chomp Spell&lt;br&gt;- Book shop, reward: Exp Charm&lt;br&gt;- Bank, reward: wealth charm&lt;br&gt;- Tea Shop with hidden shrine behind it, reward: healing flask shard, (shrine) wounded evasion charm&lt;br&gt;&lt;br&gt;&lt;b&gt;Docks:&lt;/b&gt;&lt;br&gt;- Warehouse, second assassination contract is taking it back from Pinkertons&lt;br&gt;- pier, boat, whatever, reward: Harpoon gun" style="rounded=1;whiteSpace=wrap;html=1;" parent="1" vertex="1">
          <mxGeometry x="-100" y="110" width="640" height="440" as="geometry" />
        </mxCell>
        <mxCell id="U31-K8SAjryF79X9_EA9-9" value="Canyon Settlement&lt;br&gt;&lt;span style=&quot;font-weight: normal;&quot;&gt;Sculptor&#39;s Workshop: Sculpture spell&lt;/span&gt;&lt;br&gt;&lt;span style=&quot;font-weight: normal;&quot;&gt;- Rat Schoolhouse - Reward: Rat Spell&amp;nbsp;&lt;/span&gt;&lt;br&gt;&lt;span style=&quot;font-weight: normal;&quot;&gt;- Candle Maker&#39;s Workshop - Reward: Cinder spell&lt;br&gt;- Abandoned Church, reward: piercing toll spell&lt;br&gt;- platforming puzzle, Pitchfork weapon&lt;/span&gt;&lt;br&gt;&lt;br&gt;Later:&lt;br&gt;&lt;span style=&quot;font-weight: normal;&quot;&gt;- Butcher&#39;s Shop, heavyhook charm&lt;br&gt;- Windmill top: Charm stone&lt;br&gt;&lt;/span&gt;" style="rounded=1;whiteSpace=wrap;html=1;fontStyle=1" parent="1" vertex="1">
          <mxGeometry x="2170" y="1100" width="290" height="310" as="geometry" />
        </mxCell>
        <mxCell id="U31-K8SAjryF79X9_EA9-13" value="Estate:&lt;br&gt;&lt;span style=&quot;font-weight: normal;&quot;&gt;- Sniper bodyguard physician in the topiary gardens, miniboss, reward: Sniper rifle&lt;br&gt;- Legendary Gun Schematic&lt;br&gt;- Black Ichor fountain, reward: wraithshot spell&lt;br&gt;- Library, reward: Exp Booster 2&lt;br&gt;- Closet, moth spell&lt;br&gt;- Kitchen, flask shard&lt;br&gt;- Greenhouse, reward: Cactus Growth Spell&lt;br&gt;- Fleshy depths of the estate: Worm Cannon spell&lt;br&gt;- William Vauxhall (boss), reward: Silverwater Pearl&lt;br&gt;- Adelaide&#39;s locket (at her sister&#39;s grave)&lt;br&gt;&lt;/span&gt;" style="rounded=1;whiteSpace=wrap;html=1;fontStyle=1" parent="1" vertex="1">
          <mxGeometry x="2970" y="-120" width="350" height="320" as="geometry" />
        </mxCell>
        <mxCell id="U31-K8SAjryF79X9_EA9-15" value="Cathedral:&lt;br&gt;&lt;span style=&quot;font-weight: normal;&quot;&gt;- Early Peek area, reward: arcane bolt spell&lt;br&gt;- Undercroft, reward: madness cut charm&lt;br&gt;- Silver Firecracker spell&lt;br&gt;- Baptismal Fountains, reward: flask silverdust&lt;br&gt;- Sacred Spring (puzzle), reward: Liturgical Staff&lt;br&gt;- Choir Tower, reward: Silverstorm Spell&lt;br&gt;- Bishop (boss), reward: Pilgrim&#39;s Trail key&lt;br&gt;&lt;/span&gt;&lt;br&gt;Scholar&#39;s research hall:&lt;br&gt;&lt;span style=&quot;font-weight: normal;&quot;&gt;- Library&lt;br&gt;- Astronomy Tower&lt;br&gt;- Magic Circle, reward: spawn Ally spell&lt;br&gt;- Blood Ritual, reward: fatebind spell&lt;br&gt;&lt;/span&gt;- &lt;span style=&quot;font-weight: normal;&quot;&gt;Head Scholar (boss), reward: Silverbolt Burst spell&lt;/span&gt;" style="rounded=1;whiteSpace=wrap;html=1;fontStyle=1" parent="1" vertex="1">
          <mxGeometry x="3260" y="840" width="450" height="360" as="geometry" />
        </mxCell>
        <mxCell id="U31-K8SAjryF79X9_EA9-22" style="edgeStyle=orthogonalEdgeStyle;rounded=0;orthogonalLoop=1;jettySize=auto;html=1;exitX=1;exitY=0.5;exitDx=0;exitDy=0;entryX=0.5;entryY=0;entryDx=0;entryDy=0;" parent="1" source="U31-K8SAjryF79X9_EA9-21" target="y7ExrD23VPvLcg61ZoRe-20" edge="1">
          <mxGeometry relative="1" as="geometry" />
        </mxCell>
        <mxCell id="U31-K8SAjryF79X9_EA9-21" value="&lt;b&gt;Blackpool Forest:&lt;/b&gt;&lt;br&gt;- Trapper&#39;s Cabin, reward: rifle&lt;br&gt;- Fly Enemy (miniboss), reward: Vile Fly spell&lt;br&gt;- Screaming Trees, central tree reward: total damage reduction charm&lt;br&gt;&lt;b&gt;&lt;br&gt;Upper Forest:&lt;/b&gt;&lt;br&gt;- Bulletsage&#39;s hideout, reward: Bullet magnet charm&amp;nbsp;&lt;br&gt;- Mirror Shard&lt;br&gt;- Wraith Turret spell (behind dead man&#39;s shot puzzle)" style="rounded=1;whiteSpace=wrap;html=1;" parent="1" vertex="1">
          <mxGeometry x="500" y="-520" width="410" height="320" as="geometry" />
        </mxCell>
        <mxCell id="U31-K8SAjryF79X9_EA9-24" value="Mining Camp:&lt;br&gt;&lt;span style=&quot;font-weight: normal;&quot;&gt;- Catalina (boss), reward: hookshot&lt;br&gt;- Electricity Substation: Invisible monster inventor - reward: edison cannon&lt;/span&gt;&lt;br&gt;&lt;span style=&quot;font-weight: normal;&quot;&gt;- Respec Saloon&lt;/span&gt;&lt;span style=&quot;border-color: var(--border-color);&quot;&gt;&lt;br&gt;&lt;span style=&quot;font-weight: normal;&quot;&gt;- Workshop: Augur Drillbit weapon&lt;/span&gt;&lt;br&gt;&lt;span style=&quot;font-weight: normal;&quot;&gt;- Collapsed tunnel, bats, bat spell&lt;/span&gt;&lt;br&gt;&lt;span style=&quot;font-weight: normal;&quot;&gt;- Processing building (acid separation), reward: flask shard&lt;/span&gt;&lt;br&gt;&lt;span style=&quot;font-weight: normal;&quot;&gt;- Explosives Storage, reward: boom charm&lt;/span&gt;&lt;br&gt;&lt;span style=&quot;font-weight: normal;&quot;&gt;- Pump House (sabotaged), flask silverdust&lt;/span&gt;&lt;br&gt;&lt;br&gt;Mine Trail:&lt;br&gt;&lt;span style=&quot;font-weight: normal;&quot;&gt;- Mirror Shard&lt;br&gt;&lt;/span&gt;-&amp;nbsp;&lt;span style=&quot;border-color: var(--border-color);&quot;&gt;&lt;span style=&quot;border-color: var(--border-color); font-weight: normal;&quot;&gt;Mad Stagecoach encounter spot&lt;/span&gt;&lt;/span&gt;&lt;br&gt;&lt;/span&gt;" style="rounded=1;whiteSpace=wrap;html=1;fontStyle=1" parent="1" vertex="1">
          <mxGeometry x="2510" y="110" width="360" height="290" as="geometry" />
        </mxCell>
        <mxCell id="U31-K8SAjryF79X9_EA9-27" value="&lt;b&gt;East Tracks:&lt;/b&gt;&lt;br&gt;- Blood Engine train quest, reward: Fire Damage Up Charm&lt;br&gt;-&amp;nbsp;&lt;span style=&quot;border-color: var(--border-color);&quot;&gt;Mad Stagecoach encounter spot&lt;br&gt;- Spider Windmill, reward: Spider Ally spell&lt;br&gt;&lt;br&gt;&lt;/span&gt;" style="rounded=1;whiteSpace=wrap;html=1;" parent="1" vertex="1">
          <mxGeometry x="2620" y="520" width="360" height="210" as="geometry" />
        </mxCell>
        <mxCell id="U31-K8SAjryF79X9_EA9-29" value="&lt;b&gt;Cistern:&lt;/b&gt;&lt;br&gt;- Entrance from well&lt;br&gt;- Key to choir tower&lt;br&gt;- Undermarket&lt;br&gt;- Spiderwounds charm&lt;br&gt;- (miniboss) Tentacle Lash spell&lt;br&gt;&lt;br&gt;&lt;b&gt;Tunnels:&lt;br&gt;- &lt;/b&gt;Rotten Water Tower drain, reward: wraith dive spell" style="rounded=1;whiteSpace=wrap;html=1;" parent="1" vertex="1">
          <mxGeometry x="3820" y="20" width="370" height="310" as="geometry" />
        </mxCell>
        <mxCell id="dAC7YyU4IVjJOhfW8gD6-7" style="edgeStyle=orthogonalEdgeStyle;rounded=0;orthogonalLoop=1;jettySize=auto;html=1;exitX=0;exitY=0.5;exitDx=0;exitDy=0;entryX=1;entryY=0.5;entryDx=0;entryDy=0;" parent="1" source="U31-K8SAjryF79X9_EA9-30" target="U31-K8SAjryF79X9_EA9-32" edge="1">
          <mxGeometry relative="1" as="geometry" />
        </mxCell>
        <mxCell id="U31-K8SAjryF79X9_EA9-30" value="Outer&lt;br&gt;Catacombs" style="rounded=1;whiteSpace=wrap;html=1;fillColor=#615846;strokeColor=none;fontSize=22;fontColor=#000000;" parent="1" vertex="1">
          <mxGeometry x="3370" y="-1640" width="240" height="470" as="geometry" />
        </mxCell>
        <mxCell id="U31-K8SAjryF79X9_EA9-32" value="&lt;b&gt;Outer Catacombs:&lt;/b&gt;&lt;br&gt;- Bones of a strange giant&lt;br style=&quot;border-color: var(--border-color);&quot;&gt;- (possible) Revived Saint (miniboss), reward: Blood Rain spell&lt;br&gt;- Flask Silverdust" style="rounded=1;whiteSpace=wrap;html=1;" parent="1" vertex="1">
          <mxGeometry x="2565" y="-1670" width="470" height="340" as="geometry" />
        </mxCell>
        <mxCell id="dAC7YyU4IVjJOhfW8gD6-2" value="&lt;b&gt;Lower Ward:&lt;/b&gt;&lt;br&gt;- From pit creature shortcut, reward: surgeon&#39;s knife&amp;nbsp;&lt;br&gt;- Kidnapped patient holding area, Ichorcyst miniboss &amp;amp; spell&lt;br&gt;- Dissection/Procedure room - reward: Painful Sanity charm&lt;br&gt;- Apothecary Cabinet storage rooms - Charm stone&lt;br&gt;- Water tanks with creatures inside area&lt;br&gt;- Experiment creature lockup area, flask shard&lt;br&gt;- Medical Elixir&lt;br&gt;- Coil Baton weapon&lt;br&gt;- Chief Physician, reward: Sealing Artifact&lt;br&gt;&lt;br&gt;&lt;b&gt;Body Pit&lt;/b&gt;&lt;br&gt;- Mushroom boss, reward: poison pistol" style="rounded=1;whiteSpace=wrap;html=1;" parent="1" vertex="1">
          <mxGeometry x="3400" y="-240" width="330" height="300" as="geometry" />
        </mxCell>
        <mxCell id="dAC7YyU4IVjJOhfW8gD6-4" value="&lt;b&gt;Mesa Ruins:&lt;/b&gt;&lt;br&gt;- Market plaza, flask silverdust&lt;br&gt;- Stacked Residences, platforming house: needle skin charm&lt;br&gt;- Sanctuary / Citadel: Boss (???), reward: Sealing Artifact&lt;br&gt;- Hidden crypts, reward: Firebreak spell&lt;br&gt;- Weird ritual area, reward: Obsidian Knife" style="rounded=1;whiteSpace=wrap;html=1;" parent="1" vertex="1">
          <mxGeometry x="380" y="820" width="320" height="340" as="geometry" />
        </mxCell>
        <mxCell id="dAC7YyU4IVjJOhfW8gD6-8" value="&lt;b&gt;Mine:&lt;/b&gt;&lt;br&gt;- congealed amalgam of corpses that chases you like resident evil&lt;br&gt;- Bandolier Strap&lt;br&gt;-&amp;nbsp;" style="rounded=1;whiteSpace=wrap;html=1;" parent="1" vertex="1">
          <mxGeometry x="2510" y="-890" width="430" height="420" as="geometry" />
        </mxCell>
        <mxCell id="dAC7YyU4IVjJOhfW8gD6-11" value="" style="rounded=1;whiteSpace=wrap;html=1;fillColor=#615846;strokeColor=none;fontSize=22;fontColor=#000000;" parent="1" vertex="1">
          <mxGeometry x="3560" y="-1360" width="240" height="80" as="geometry" />
        </mxCell>
        <mxCell id="dAC7YyU4IVjJOhfW8gD6-14" style="edgeStyle=orthogonalEdgeStyle;rounded=0;orthogonalLoop=1;jettySize=auto;html=1;exitX=1;exitY=0.5;exitDx=0;exitDy=0;entryX=0;entryY=0.5;entryDx=0;entryDy=0;" parent="1" source="dAC7YyU4IVjJOhfW8gD6-12" target="dAC7YyU4IVjJOhfW8gD6-13" edge="1">
          <mxGeometry relative="1" as="geometry" />
        </mxCell>
        <mxCell id="dAC7YyU4IVjJOhfW8gD6-12" value="Silver Shore" style="rounded=1;whiteSpace=wrap;html=1;fillColor=#615846;strokeColor=none;fontSize=22;fontColor=#000000;" parent="1" vertex="1">
          <mxGeometry x="4570" y="-2080" width="240" height="550" as="geometry" />
        </mxCell>
        <mxCell id="dAC7YyU4IVjJOhfW8gD6-13" value="&lt;b&gt;Silver Shore:&lt;br&gt;- &lt;/b&gt;Spanish Ruins, reward: Arquebus&lt;br&gt;- Conquistador&#39;s Greatsword&lt;br&gt;- Eliazar Vauxhall (boss), reward: Sealing Artifact" style="rounded=1;whiteSpace=wrap;html=1;" parent="1" vertex="1">
          <mxGeometry x="4971.5" y="-1965" width="300" height="320" as="geometry" />
        </mxCell>
        <mxCell id="dAC7YyU4IVjJOhfW8gD6-15" style="edgeStyle=orthogonalEdgeStyle;rounded=0;orthogonalLoop=1;jettySize=auto;html=1;exitX=0.25;exitY=1;exitDx=0;exitDy=0;entryX=0.5;entryY=0;entryDx=0;entryDy=0;" parent="1" source="y7ExrD23VPvLcg61ZoRe-1" target="y7ExrD23VPvLcg61ZoRe-34" edge="1">
          <mxGeometry relative="1" as="geometry" />
        </mxCell>
        <mxCell id="y7ExrD23VPvLcg61ZoRe-27" value="&lt;b&gt;Tombwater Station:&lt;br&gt;&lt;/b&gt;&lt;br&gt;SIDEQUESTS:&lt;br&gt;- Lead Bass Pickett to Silton, meet back at station, reward: Charm: Warrior Bullet&lt;br&gt;- Cecil Mudd saved, reward (from Amos): Charm- increase madness recovery rate&lt;br&gt;- Finish Catalina quest (help fight sheriff), meet her back here, reward: flamestep charm" style="rounded=1;whiteSpace=wrap;html=1;" parent="1" vertex="1">
          <mxGeometry x="1220" y="1330" width="410" height="430" as="geometry" />
        </mxCell>
        <mxCell id="dAC7YyU4IVjJOhfW8gD6-19" style="edgeStyle=orthogonalEdgeStyle;rounded=0;orthogonalLoop=1;jettySize=auto;html=1;exitX=0.5;exitY=1;exitDx=0;exitDy=0;" parent="1" source="y7ExrD23VPvLcg61ZoRe-2" target="y7ExrD23VPvLcg61ZoRe-27" edge="1">
          <mxGeometry relative="1" as="geometry">
            <Array as="points">
              <mxPoint x="1550" y="1100" />
              <mxPoint x="1425" y="1100" />
            </Array>
          </mxGeometry>
        </mxCell>
        <mxCell id="dAC7YyU4IVjJOhfW8gD6-21" value="Addled Tracks West" style="rounded=1;whiteSpace=wrap;html=1;fillColor=#7A6E43;strokeColor=none;fontSize=22;" parent="1" vertex="1">
          <mxGeometry x="1060" y="610" width="420" height="40" as="geometry" />
        </mxCell>
        <mxCell id="dAC7YyU4IVjJOhfW8gD6-26" style="edgeStyle=orthogonalEdgeStyle;rounded=0;orthogonalLoop=1;jettySize=auto;html=1;exitX=0;exitY=0.5;exitDx=0;exitDy=0;entryX=1;entryY=0.5;entryDx=0;entryDy=0;" parent="1" source="dAC7YyU4IVjJOhfW8gD6-24" target="dAC7YyU4IVjJOhfW8gD6-25" edge="1">
          <mxGeometry relative="1" as="geometry" />
        </mxCell>
        <mxCell id="dAC7YyU4IVjJOhfW8gD6-24" value="Addled Tracks&lt;br&gt;(demiplane, connects from east and west)" style="rounded=1;whiteSpace=wrap;html=1;fillColor=#7A6E43;strokeColor=none;fontSize=22;" parent="1" vertex="1">
          <mxGeometry x="820" y="450" width="240" height="320" as="geometry" />
        </mxCell>
        <mxCell id="dAC7YyU4IVjJOhfW8gD6-25" value="&lt;b&gt;Addled Tracks:&lt;/b&gt;&lt;br&gt;- early: Railroad Spike weapon&lt;br&gt;- (puzzle)Some skeleton of a guy who got lost, reward: Wheellock Carbine&lt;br&gt;&lt;b&gt;Adelaide&#39;s Homestead:&lt;/b&gt;&lt;br&gt;- Madness butcher charm" style="rounded=1;whiteSpace=wrap;html=1;" parent="1" vertex="1">
          <mxGeometry x="160" y="580" width="220" height="240" as="geometry" />
        </mxCell>
        <mxCell id="y7ExrD23VPvLcg61ZoRe-18" value="Adelaide&#39;s Homestead" style="rounded=1;whiteSpace=wrap;html=1;fillColor=#B8C259;strokeColor=none;fontSize=22;" parent="1" vertex="1">
          <mxGeometry x="660" y="620" width="160" height="180" as="geometry" />
        </mxCell>
        <mxCell id="dAC7YyU4IVjJOhfW8gD6-27" value="" style="rounded=1;whiteSpace=wrap;html=1;fillColor=#615846;strokeColor=none;fontSize=22;fontColor=#000000;" parent="1" vertex="1">
          <mxGeometry x="3680" y="-610" width="210" height="60" as="geometry" />
        </mxCell>
        <mxCell id="dAC7YyU4IVjJOhfW8gD6-28" value="Body Pit" style="rounded=1;whiteSpace=wrap;html=1;fillColor=#53663E;strokeColor=none;fontSize=22;fontColor=#000000;" parent="1" vertex="1">
          <mxGeometry x="3645" y="-430" width="155" height="160" as="geometry" />
        </mxCell>
        <mxCell id="bWVoMaOhlIPRe0r3H4Js-1" value="Research&lt;br&gt;Hall" style="rounded=1;whiteSpace=wrap;html=1;fillColor=#615846;strokeColor=none;fontSize=22;" parent="1" vertex="1">
          <mxGeometry x="1976.25" y="460" width="93.75" height="90" as="geometry" />
        </mxCell>
        <mxCell id="bWVoMaOhlIPRe0r3H4Js-2" value="" style="rounded=1;whiteSpace=wrap;html=1;fillColor=#615846;strokeColor=none;fontSize=22;" parent="1" vertex="1">
          <mxGeometry x="1930" y="510" width="60" height="20" as="geometry" />
        </mxCell>
        <mxCell id="bWVoMaOhlIPRe0r3H4Js-3" value="&lt;font style=&quot;font-size: 8px;&quot; color=&quot;#ffffff&quot;&gt;Fast&lt;br&gt;Travel&lt;/font&gt;" style="rhombus;whiteSpace=wrap;html=1;strokeColor=none;fillColor=#529191;gradientColor=none;" parent="1" vertex="1">
          <mxGeometry x="1600" y="690" width="40" height="40" as="geometry" />
        </mxCell>
        <mxCell id="bWVoMaOhlIPRe0r3H4Js-4" value="&lt;font style=&quot;font-size: 8px;&quot; color=&quot;#ffffff&quot;&gt;Fast&lt;br&gt;Travel&lt;/font&gt;" style="rhombus;whiteSpace=wrap;html=1;strokeColor=none;fillColor=#529191;gradientColor=none;" parent="1" vertex="1">
          <mxGeometry x="1180" y="800" width="40" height="40" as="geometry" />
        </mxCell>
        <mxCell id="bWVoMaOhlIPRe0r3H4Js-5" value="&lt;font style=&quot;font-size: 8px;&quot; color=&quot;#ffffff&quot;&gt;Fast&lt;br&gt;Travel&lt;/font&gt;" style="rhombus;whiteSpace=wrap;html=1;strokeColor=none;fillColor=#529191;gradientColor=none;" parent="1" vertex="1">
          <mxGeometry x="1795" y="235" width="40" height="40" as="geometry" />
        </mxCell>
        <mxCell id="bWVoMaOhlIPRe0r3H4Js-6" value="&lt;font style=&quot;font-size: 8px;&quot; color=&quot;#ffffff&quot;&gt;Fast&lt;br&gt;Travel&lt;/font&gt;" style="rhombus;whiteSpace=wrap;html=1;strokeColor=none;fillColor=#529191;gradientColor=none;" parent="1" vertex="1">
          <mxGeometry x="2270" y="150" width="40" height="40" as="geometry" />
        </mxCell>
        <mxCell id="bWVoMaOhlIPRe0r3H4Js-7" value="&lt;font style=&quot;font-size: 8px;&quot; color=&quot;#ffffff&quot;&gt;Fast&lt;br&gt;Travel&lt;/font&gt;" style="rhombus;whiteSpace=wrap;html=1;strokeColor=none;fillColor=#529191;gradientColor=none;" parent="1" vertex="1">
          <mxGeometry x="1235" y="-130" width="40" height="40" as="geometry" />
        </mxCell>
        <mxCell id="bWVoMaOhlIPRe0r3H4Js-8" value="&lt;font style=&quot;font-size: 8px;&quot; color=&quot;#ffffff&quot;&gt;Fast&lt;br&gt;Travel&lt;/font&gt;" style="rhombus;whiteSpace=wrap;html=1;strokeColor=none;fillColor=#529191;gradientColor=none;" parent="1" vertex="1">
          <mxGeometry x="2160" y="850" width="40" height="40" as="geometry" />
        </mxCell>
        <mxCell id="Avr4taE0nrmb-lPB2ZS--1" value="&lt;span style=&quot;border-color: var(--border-color);&quot;&gt;&lt;b style=&quot;font-weight: bold; border-color: var(--border-color);&quot;&gt;Lake Shallows:&lt;br&gt;&lt;/b&gt;- Crashed boat, reward: Anchor weapon&lt;br&gt;- Beached Riverboat Casino, reward: healing flask shard, damage wager charm&lt;br style=&quot;border-color: var(--border-color);&quot;&gt;- Leeches, leech spell&lt;br style=&quot;border-color: var(--border-color);&quot;&gt;- Church Heretic, reward: Holy (magic) gun&lt;br style=&quot;border-color: var(--border-color);&quot;&gt;- Church Heretic (later game): Holy Strike spell&lt;br&gt;&lt;b&gt;&lt;br&gt;Lake Shore:&lt;/b&gt;&lt;/span&gt;&lt;br style=&quot;border-color: var(--border-color);&quot;&gt;- Siren of Lake, reward: Lantern&lt;br style=&quot;border-color: var(--border-color);&quot;&gt;-&amp;nbsp;Mad Stagecoach encounter spot" style="rounded=1;whiteSpace=wrap;html=1;" parent="1" vertex="1">
          <mxGeometry x="600" y="-140" width="320" height="280" as="geometry" />
        </mxCell>
        <mxCell id="PVgypgHmpQFGBxJ7ayfC-4" style="edgeStyle=orthogonalEdgeStyle;rounded=0;orthogonalLoop=1;jettySize=auto;html=1;exitX=0.5;exitY=1;exitDx=0;exitDy=0;" edge="1" parent="1" source="y7ExrD23VPvLcg61ZoRe-20" target="y7ExrD23VPvLcg61ZoRe-20">
          <mxGeometry relative="1" as="geometry" />
        </mxCell>
      </root>
    </mxGraphModel>
  </diagram>
</mxfile>
