animation{
  name = "walking",
  src_image = "shadows/shadow.png",
  directions = {
    { x = 0, y = 64, frame_width = 32, frame_height = 16, origin_x = 16, origin_y = 13 },
    { x = 0, y = 64, frame_width = 32, frame_height = 16, origin_x = 16, origin_y = 13 },
    { x = 0, y = 64, frame_width = 32, frame_height = 16, origin_x = 16, origin_y = 13 },
    { x = 0, y = 64, frame_width = 32, frame_height = 16, origin_x = 16, origin_y = 13 },
  },
}
