animation{
  name = "spinning",
  src_image = "entities/enemy_projectiles/pickaxe.png",
  frame_delay = 40,
  frame_to_loop_on = 0,
  directions = {
    { x = 0, y = 16, frame_width = 32, frame_height = 32, origin_x = 16, origin_y = 29, num_frames = 8, num_columns = 4 },
  },
}
