animation{
  name = "stopped",
  src_image = "enemies/tombwater_enemies/conquistador.png",
  frame_delay = 500,
  frame_to_loop_on = 0,
  directions = {
    { x = 0, y = 144, frame_width = 64, frame_height = 64, origin_x = 32, origin_y = 61, num_frames = 2 },
    { x = 0, y = 208, frame_width = 64, frame_height = 64, origin_x = 32, origin_y = 61, num_frames = 2 },
  },
}
animation{
  name = "big_slash_attack",
  src_image = "enemies/tombwater_enemies/conquistador.png",
  frame_delay = 60,
  directions = {
    { x = 144, y = 1040, frame_width = 48, frame_height = 64, origin_x = 8, origin_y = 61, num_frames = 7 },
    { x = 128, y = 1104, frame_width = 48, frame_height = 64, origin_x = 40, origin_y = 61, num_frames = 7 },
  },
}
animation{
  name = "big_slash_recovery",
  src_image = "enemies/tombwater_enemies/conquistador.png",
  frame_delay = 100,
  frame_to_loop_on = 3,
  directions = {
    { x = 480, y = 1040, frame_width = 64, frame_height = 64, origin_x = 32, origin_y = 61, num_frames = 4 },
    { x = 480, y = 1104, frame_width = 64, frame_height = 64, origin_x = 32, origin_y = 61, num_frames = 4 },
  },
}
animation{
  name = "big_slash_windup",
  src_image = "enemies/tombwater_enemies/conquistador.png",
  frame_delay = 50,
  frame_to_loop_on = 0,
  directions = {
    { x = 0, y = 1040, frame_width = 64, frame_height = 64, origin_x = 32, origin_y = 61, num_frames = 2 },
    { x = 0, y = 1104, frame_width = 64, frame_height = 64, origin_x = 32, origin_y = 61, num_frames = 2 },
  },
}
animation{
  name = "dash_attack",
  src_image = "enemies/tombwater_enemies/conquistador.png",
  frame_delay = 40,
  frame_to_loop_on = 0,
  directions = {
    { x = 64, y = 896, frame_width = 64, frame_height = 64, origin_x = 32, origin_y = 61, num_frames = 6 },
    { x = 64, y = 960, frame_width = 64, frame_height = 64, origin_x = 32, origin_y = 61, num_frames = 6 },
  },
}
animation{
  name = "dash_recovery",
  src_image = "enemies/tombwater_enemies/conquistador.png",
  frame_delay = 60,
  frame_to_loop_on = 2,
  directions = {
    { x = 448, y = 896, frame_width = 64, frame_height = 64, origin_x = 32, origin_y = 61, num_frames = 3 },
    { x = 448, y = 960, frame_width = 64, frame_height = 64, origin_x = 32, origin_y = 61, num_frames = 3 },
  },
}
animation{
  name = "dash_windup",
  src_image = "enemies/tombwater_enemies/conquistador.png",
  directions = {
    { x = 0, y = 896, frame_width = 64, frame_height = 64, origin_x = 32, origin_y = 61 },
    { x = 0, y = 960, frame_width = 64, frame_height = 64, origin_x = 32, origin_y = 61 },
  },
}
animation{
  name = "jump_attack",
  src_image = "enemies/tombwater_enemies/conquistador.png",
  frame_delay = 60,
  directions = {
    { x = 64, y = 720, frame_width = 64, frame_height = 80, origin_x = 40, origin_y = 77, num_frames = 10 },
    { x = 64, y = 800, frame_width = 64, frame_height = 80, origin_x = 24, origin_y = 77, num_frames = 10 },
  },
}
animation{
  name = "jump_recovery",
  src_image = "enemies/tombwater_enemies/conquistador.png",
  directions = {
    { x = 640, y = 736, frame_width = 64, frame_height = 64, origin_x = 40, origin_y = 61 },
    { x = 640, y = 816, frame_width = 64, frame_height = 64, origin_x = 24, origin_y = 61 },
  },
}
animation{
  name = "jump_windup",
  src_image = "enemies/tombwater_enemies/conquistador.png",
  directions = {
    { x = 0, y = 736, frame_width = 64, frame_height = 64, origin_x = 40, origin_y = 61 },
    { x = 0, y = 816, frame_width = 64, frame_height = 64, origin_x = 24, origin_y = 61 },
  },
}
animation{
  name = "jumping",
  src_image = "enemies/tombwater_enemies/conquistador.png",
  frame_delay = 60,
  frame_to_loop_on = 6,
  directions = {
    { x = 64, y = 720, frame_width = 64, frame_height = 80, origin_x = 40, origin_y = 77, num_frames = 7 },
    { x = 64, y = 800, frame_width = 64, frame_height = 80, origin_x = 24, origin_y = 77, num_frames = 7 },
  },
}
animation{
  name = "jumping_hover",
  src_image = "enemies/tombwater_enemies/conquistador.png",
  directions = {
    { x = 448, y = 720, frame_width = 64, frame_height = 80, origin_x = 40, origin_y = 77 },
    { x = 448, y = 800, frame_width = 64, frame_height = 80, origin_x = 24, origin_y = 77 },
  },
}
animation{
  name = "jumping_slam",
  src_image = "enemies/tombwater_enemies/conquistador.png",
  frame_delay = 60,
  directions = {
    { x = 448, y = 720, frame_width = 64, frame_height = 80, origin_x = 40, origin_y = 77, num_frames = 4 },
    { x = 448, y = 800, frame_width = 64, frame_height = 80, origin_x = 24, origin_y = 77, num_frames = 4 },
  },
}
animation{
  name = "slash_a_attack",
  src_image = "enemies/tombwater_enemies/conquistador.png",
  frame_delay = 60,
  directions = {
    { x = 80, y = 432, frame_width = 64, frame_height = 64, origin_x = 32, origin_y = 61, num_frames = 6 },
    { x = 80, y = 496, frame_width = 64, frame_height = 64, origin_x = 32, origin_y = 61, num_frames = 6 },
  },
}
animation{
  name = "slash_a_recovery",
  src_image = "enemies/tombwater_enemies/conquistador.png",
  frame_delay = 60,
  directions = {
    { x = 400, y = 432, frame_width = 64, frame_height = 64, origin_x = 32, origin_y = 61, num_frames = 3 },
    { x = 400, y = 496, frame_width = 64, frame_height = 64, origin_x = 32, origin_y = 61, num_frames = 3 },
  },
}
animation{
  name = "slash_a_windup",
  src_image = "enemies/tombwater_enemies/conquistador.png",
  directions = {
    { x = 0, y = 432, frame_width = 80, frame_height = 64, origin_x = 56, origin_y = 61 },
    { x = 0, y = 496, frame_width = 80, frame_height = 64, origin_x = 24, origin_y = 61 },
  },
}
animation{
  name = "slash_b_attack",
  src_image = "enemies/tombwater_enemies/conquistador.png",
  frame_delay = 60,
  directions = {
    { x = 64, y = 288, frame_width = 80, frame_height = 64, origin_x = 48, origin_y = 61, num_frames = 6 },
    { x = 64, y = 352, frame_width = 80, frame_height = 64, origin_x = 32, origin_y = 61, num_frames = 6 },
  },
}
animation{
  name = "slash_b_windup",
  src_image = "enemies/tombwater_enemies/conquistador.png",
  directions = {
    { x = 0, y = 288, frame_width = 64, frame_height = 64, origin_x = 32, origin_y = 61 },
    { x = 0, y = 352, frame_width = 64, frame_height = 64, origin_x = 32, origin_y = 61 },
  },
}
animation{
  name = "spin_attack",
  src_image = "enemies/tombwater_enemies/conquistador.png",
  frame_delay = 40,
  directions = {
    { x = 64, y = 576, frame_width = 64, frame_height = 64, origin_x = 32, origin_y = 61, num_frames = 10 },
    { x = 64, y = 640, frame_width = 64, frame_height = 64, origin_x = 32, origin_y = 61, num_frames = 10 },
  },
}
animation{
  name = "spin_attack_continuous",
  src_image = "enemies/tombwater_enemies/conquistador.png",
  frame_delay = 60,
  frame_to_loop_on = 2,
  directions = {
    { x = 0, y = 576, frame_width = 64, frame_height = 64, origin_x = 32, origin_y = 61, num_frames = 8 },
    { x = 0, y = 640, frame_width = 64, frame_height = 64, origin_x = 32, origin_y = 61, num_frames = 8 },
  },
}
animation{
  name = "spin_attack_windup",
  src_image = "enemies/tombwater_enemies/conquistador.png",
  directions = {
    { x = 0, y = 576, frame_width = 64, frame_height = 64, origin_x = 32, origin_y = 61 },
    { x = 0, y = 640, frame_width = 64, frame_height = 64, origin_x = 32, origin_y = 61 },
  },
}
animation{
  name = "walking",
  src_image = "enemies/tombwater_enemies/conquistador.png",
  frame_delay = 120,
  frame_to_loop_on = 0,
  directions = {
    { x = 128, y = 144, frame_width = 64, frame_height = 64, origin_x = 32, origin_y = 61, num_frames = 5 },
    { x = 128, y = 208, frame_width = 64, frame_height = 64, origin_x = 32, origin_y = 61, num_frames = 5 },
  },
}
