animation{
  name = "stopped",
  src_image = "enemies/tombwater_enemies/hunched_miner_pickaxe.png",
  frame_delay = 400,
  frame_to_loop_on = 0,
  directions = {
    { x = 0, y = 32, frame_width = 32, frame_height = 32, origin_x = 16, origin_y = 29, num_frames = 2 },
    { x = 0, y = 64, frame_width = 32, frame_height = 32, origin_x = 16, origin_y = 29, num_frames = 2 },
    { x = 0, y = 96, frame_width = 32, frame_height = 32, origin_x = 16, origin_y = 29, num_frames = 2 },
    { x = 0, y = 128, frame_width = 32, frame_height = 32, origin_x = 16, origin_y = 29, num_frames = 2 },
  },
}
animation{
  name = "crouching",
  src_image = "enemies/tombwater_enemies/hunched_miner_pickaxe.png",
  directions = {
    { x = 0, y = 320, frame_width = 32, frame_height = 32, origin_x = 16, origin_y = 29 },
    { x = 0, y = 352, frame_width = 32, frame_height = 32, origin_x = 16, origin_y = 29 },
    { x = 0, y = 384, frame_width = 32, frame_height = 32, origin_x = 16, origin_y = 29 },
    { x = 0, y = 416, frame_width = 32, frame_height = 32, origin_x = 16, origin_y = 29 },
  },
}
animation{
  name = "jumping_back",
  src_image = "enemies/tombwater_enemies/hunched_miner_pickaxe.png",
  directions = {
    { x = 32, y = 320, frame_width = 32, frame_height = 32, origin_x = 16, origin_y = 29 },
    { x = 32, y = 352, frame_width = 32, frame_height = 32, origin_x = 16, origin_y = 29 },
    { x = 32, y = 384, frame_width = 32, frame_height = 32, origin_x = 16, origin_y = 29 },
    { x = 32, y = 416, frame_width = 32, frame_height = 32, origin_x = 16, origin_y = 29 },
  },
}
animation{
  name = "jumping_forward",
  src_image = "enemies/tombwater_enemies/hunched_miner_pickaxe.png",
  directions = {
    { x = 64, y = 320, frame_width = 32, frame_height = 32, origin_x = 16, origin_y = 29 },
    { x = 64, y = 352, frame_width = 32, frame_height = 32, origin_x = 16, origin_y = 29 },
    { x = 64, y = 384, frame_width = 32, frame_height = 32, origin_x = 16, origin_y = 29 },
    { x = 64, y = 416, frame_width = 32, frame_height = 32, origin_x = 16, origin_y = 29 },
  },
}
animation{
  name = "pickaxe_throw_windup",
  src_image = "enemies/tombwater_enemies/hunched_miner_pickaxe.png",
  directions = {
    { x = 336, y = 176, frame_width = 48, frame_height = 32, origin_x = 32, origin_y = 29 },
    { x = 336, y = 208, frame_width = 48, frame_height = 32, origin_x = 16, origin_y = 29 },
    { x = 336, y = 240, frame_width = 48, frame_height = 32, origin_x = 16, origin_y = 29 },
    { x = 336, y = 272, frame_width = 48, frame_height = 32, origin_x = 32, origin_y = 29 },
  },
}
animation{
  name = "slash_1_attack",
  src_image = "enemies/tombwater_enemies/hunched_miner_pickaxe.png",
  frame_delay = 70,
  directions = {
    { x = 0, y = 176, frame_width = 32, frame_height = 32, origin_x = 16, origin_y = 29, num_frames = 5 },
    { x = 0, y = 208, frame_width = 32, frame_height = 32, origin_x = 16, origin_y = 29, num_frames = 5 },
    { x = 0, y = 240, frame_width = 32, frame_height = 32, origin_x = 16, origin_y = 29, num_frames = 5 },
    { x = 0, y = 272, frame_width = 32, frame_height = 32, origin_x = 16, origin_y = 29, num_frames = 5 },
  },
}
animation{
  name = "slash_1_windup",
  src_image = "enemies/tombwater_enemies/hunched_miner_pickaxe.png",
  directions = {
    { x = 0, y = 176, frame_width = 32, frame_height = 32, origin_x = 16, origin_y = 29 },
    { x = 0, y = 208, frame_width = 32, frame_height = 32, origin_x = 16, origin_y = 29 },
    { x = 0, y = 240, frame_width = 32, frame_height = 32, origin_x = 16, origin_y = 29 },
    { x = 0, y = 272, frame_width = 32, frame_height = 32, origin_x = 16, origin_y = 29 },
  },
}
animation{
  name = "slash_2_attack",
  src_image = "enemies/tombwater_enemies/hunched_miner_pickaxe.png",
  frame_delay = 70,
  directions = {
    { x = 160, y = 176, frame_width = 32, frame_height = 32, origin_x = 16, origin_y = 29, num_frames = 5 },
    { x = 160, y = 208, frame_width = 32, frame_height = 32, origin_x = 16, origin_y = 29, num_frames = 5 },
    { x = 160, y = 240, frame_width = 32, frame_height = 32, origin_x = 16, origin_y = 29, num_frames = 5 },
    { x = 160, y = 272, frame_width = 32, frame_height = 32, origin_x = 16, origin_y = 29, num_frames = 5 },
  },
}
animation{
  name = "slash_2_windup",
  src_image = "enemies/tombwater_enemies/hunched_miner_pickaxe.png",
  directions = {
    { x = 160, y = 176, frame_width = 32, frame_height = 32, origin_x = 16, origin_y = 29 },
    { x = 160, y = 208, frame_width = 32, frame_height = 32, origin_x = 16, origin_y = 29 },
    { x = 160, y = 240, frame_width = 32, frame_height = 32, origin_x = 16, origin_y = 29 },
    { x = 160, y = 272, frame_width = 32, frame_height = 32, origin_x = 16, origin_y = 29 },
  },
}
animation{
  name = "walking",
  src_image = "enemies/tombwater_enemies/hunched_miner_pickaxe.png",
  frame_delay = 120,
  frame_to_loop_on = 0,
  directions = {
    { x = 64, y = 32, frame_width = 32, frame_height = 32, origin_x = 16, origin_y = 29, num_frames = 4 },
    { x = 64, y = 64, frame_width = 32, frame_height = 32, origin_x = 16, origin_y = 29, num_frames = 4 },
    { x = 64, y = 96, frame_width = 32, frame_height = 32, origin_x = 16, origin_y = 29, num_frames = 4 },
    { x = 64, y = 128, frame_width = 32, frame_height = 32, origin_x = 16, origin_y = 29, num_frames = 4 },
  },
}
