animation{
  name = "stopped",
  src_image = "enemies/tombwater_enemies/walking_corpse_boner.png",
  frame_delay = 500,
  frame_to_loop_on = 0,
  directions = {
    { x = 0, y = 32, frame_width = 32, frame_height = 32, origin_x = 16, origin_y = 29, num_frames = 2 },
    { x = 0, y = 80, frame_width = 32, frame_height = 32, origin_x = 16, origin_y = 29, num_frames = 2 },
    { x = 0, y = 128, frame_width = 32, frame_height = 32, origin_x = 16, origin_y = 29, num_frames = 2 },
    { x = 0, y = 176, frame_width = 32, frame_height = 32, origin_x = 16, origin_y = 29, num_frames = 2 },
  },
}
animation{
  name = "aiming",
  src_image = "enemies/tombwater_enemies/walking_corpse_boner.png",
  frame_delay = 100,
  frame_to_loop_on = 2,
  directions = {
    { x = 304, y = 32, frame_width = 32, frame_height = 32, origin_x = 16, origin_y = 29, num_frames = 3 },
    { x = 304, y = 80, frame_width = 32, frame_height = 32, origin_x = 16, origin_y = 29, num_frames = 3 },
    { x = 304, y = 128, frame_width = 32, frame_height = 32, origin_x = 16, origin_y = 29, num_frames = 3 },
    { x = 304, y = 176, frame_width = 32, frame_height = 32, origin_x = 16, origin_y = 29, num_frames = 3 },
  },
}
animation{
  name = "digging_out",
  src_image = "enemies/tombwater_enemies/walking_corpse_boner.png",
  frame_delay = 80,
  directions = {
    { x = 64, y = 624, frame_width = 16, frame_height = 32, origin_x = 8, origin_y = 29, num_frames = 15 },
  },
}
animation{
  name = "throwing",
  src_image = "enemies/tombwater_enemies/walking_corpse_boner.png",
  frame_delay = 60,
  directions = {
    { x = 32, y = 224, frame_width = 32, frame_height = 32, origin_x = 16, origin_y = 29, num_frames = 4 },
    { x = 32, y = 272, frame_width = 32, frame_height = 32, origin_x = 16, origin_y = 29, num_frames = 4 },
    { x = 32, y = 320, frame_width = 32, frame_height = 32, origin_x = 16, origin_y = 29, num_frames = 4 },
    { x = 32, y = 368, frame_width = 32, frame_height = 32, origin_x = 16, origin_y = 29, num_frames = 4 },
  },
}
animation{
  name = "tired",
  src_image = "enemies/tombwater_enemies/walking_corpse_boner.png",
  frame_delay = 400,
  frame_to_loop_on = 0,
  directions = {
    { x = 0, y = 624, frame_width = 32, frame_height = 32, origin_x = 16, origin_y = 29, num_frames = 2 },
    { x = 0, y = 672, frame_width = 32, frame_height = 32, origin_x = 16, origin_y = 29, num_frames = 2 },
    { x = 0, y = 720, frame_width = 32, frame_height = 32, origin_x = 16, origin_y = 29, num_frames = 2 },
    { x = 0, y = 768, frame_width = 32, frame_height = 32, origin_x = 16, origin_y = 29, num_frames = 2 },
  },
}
animation{
  name = "underground",
  src_image = "enemies/tombwater_enemies/walking_corpse_boner.png",
  directions = {
    { x = 64, y = 624, frame_width = 8, frame_height = 8, origin_x = 4, origin_y = 5 },
    { x = 64, y = 624, frame_width = 8, frame_height = 8, origin_x = 4, origin_y = 5 },
    { x = 64, y = 624, frame_width = 8, frame_height = 8, origin_x = 4, origin_y = 5 },
    { x = 64, y = 624, frame_width = 8, frame_height = 8, origin_x = 4, origin_y = 5 },
  },
}
animation{
  name = "walking",
  src_image = "enemies/tombwater_enemies/walking_corpse_boner.png",
  frame_delay = 130,
  frame_to_loop_on = 0,
  directions = {
    { x = 32, y = 32, frame_width = 32, frame_height = 32, origin_x = 16, origin_y = 29, num_frames = 8 },
    { x = 32, y = 80, frame_width = 32, frame_height = 32, origin_x = 16, origin_y = 29, num_frames = 8 },
    { x = 32, y = 128, frame_width = 32, frame_height = 32, origin_x = 16, origin_y = 29, num_frames = 8 },
    { x = 32, y = 176, frame_width = 32, frame_height = 32, origin_x = 16, origin_y = 29, num_frames = 8 },
  },
}
