animation{
  name = "rock",
  src_image = "destructibles/cracked_rock.png",
  directions = {
    { x = 0, y = 0, frame_width = 16, frame_height = 16, origin_x = 8, origin_y = 13 },
    { x = 0, y = 0, frame_width = 16, frame_height = 16, origin_x = 8, origin_y = 13 },
    { x = 0, y = 0, frame_width = 16, frame_height = 16, origin_x = 8, origin_y = 13 },
    { x = 0, y = 0, frame_width = 16, frame_height = 16, origin_x = 8, origin_y = 13 },
  },
}
animation{
  name = "breaking",
  src_image = "destructibles/cracked_rock.png",
  frame_delay = 60,
  directions = {
    { x = 0, y = 16, frame_width = 32, frame_height = 32, origin_x = 16, origin_y = 21, num_frames = 4 },
    { x = 0, y = 16, frame_width = 32, frame_height = 32, origin_x = 16, origin_y = 21, num_frames = 4 },
    { x = 0, y = 16, frame_width = 32, frame_height = 32, origin_x = 16, origin_y = 21, num_frames = 4 },
    { x = 0, y = 16, frame_width = 32, frame_height = 32, origin_x = 16, origin_y = 21, num_frames = 4 },
  },
}
animation{
  name = "destroy",
  src_image = "destructibles/cracked_rock.png",
  frame_delay = 60,
  directions = {
    { x = 0, y = 16, frame_width = 32, frame_height = 32, origin_x = 16, origin_y = 21, num_frames = 4 },
    { x = 0, y = 16, frame_width = 32, frame_height = 32, origin_x = 16, origin_y = 21, num_frames = 4 },
    { x = 0, y = 16, frame_width = 32, frame_height = 32, origin_x = 16, origin_y = 21, num_frames = 4 },
    { x = 0, y = 16, frame_width = 32, frame_height = 32, origin_x = 16, origin_y = 21, num_frames = 4 },
  },
}
