properties{
  x = 0,
  y = 0,
  width = 416,
  height = 240,
  min_layer = 0,
  max_layer = 2,
  tileset = "greyboxing",
}

tile{
  layer = 0,
  x = 0,
  y = 0,
  width = 416,
  height = 240,
  pattern = "8",
}

tile{
  layer = 0,
  x = 0,
  y = 0,
  width = 416,
  height = 256,
  pattern = "18",
}

tile{
  layer = 0,
  x = 0,
  y = 0,
  width = 416,
  height = 240,
  pattern = "7",
}

tile{
  layer = 0,
  x = 160,
  y = 64,
  width = 96,
  height = 128,
  pattern = "29",
  tileset = "tombwater_interior_wood",
}

tile{
  layer = 0,
  x = 192,
  y = 192,
  width = 32,
  height = 32,
  pattern = "29",
  tileset = "tombwater_interior_wood",
}

tile{
  layer = 0,
  x = 224,
  y = 192,
  width = 16,
  height = 16,
  pattern = "15",
  tileset = "tombwater_interior_wood",
}

tile{
  layer = 0,
  x = 176,
  y = 192,
  width = 16,
  height = 16,
  pattern = "18",
  tileset = "tombwater_interior_wood",
}

tile{
  layer = 0,
  x = 192,
  y = 224,
  width = 32,
  height = 8,
  pattern = "19",
  tileset = "tombwater_interior_wood",
}

tile{
  layer = 0,
  x = 224,
  y = 224,
  width = 8,
  height = 8,
  pattern = "25",
  tileset = "tombwater_interior_wood",
}

tile{
  layer = 0,
  x = 184,
  y = 224,
  width = 8,
  height = 8,
  pattern = "26",
  tileset = "tombwater_interior_wood",
}

tile{
  layer = 0,
  x = 224,
  y = 208,
  width = 8,
  height = 16,
  pattern = "21",
  tileset = "tombwater_interior_wood",
}

tile{
  layer = 0,
  x = 184,
  y = 208,
  width = 8,
  height = 16,
  pattern = "22",
  tileset = "tombwater_interior_wood",
}

tile{
  layer = 0,
  x = 160,
  y = 48,
  width = 96,
  height = 16,
  pattern = "5",
  tileset = "tombwater_interior_wood",
}

tile{
  layer = 0,
  x = 160,
  y = 16,
  width = 96,
  height = 32,
  pattern = "8",
  tileset = "tombwater_interior_wood",
}

tile{
  layer = 0,
  x = 152,
  y = 192,
  width = 8,
  height = 8,
  pattern = "26",
  tileset = "tombwater_interior_wood",
}

tile{
  layer = 0,
  x = 256,
  y = 8,
  width = 8,
  height = 8,
  pattern = "24",
  tileset = "tombwater_interior_wood",
}

tile{
  layer = 0,
  x = 152,
  y = 16,
  width = 8,
  height = 176,
  pattern = "22",
  tileset = "tombwater_interior_wood",
}

tile{
  layer = 0,
  x = 160,
  y = 8,
  width = 96,
  height = 8,
  pattern = "20",
  tileset = "tombwater_interior_wood",
}

tile{
  layer = 0,
  x = 256,
  y = 16,
  width = 8,
  height = 176,
  pattern = "21",
  tileset = "tombwater_interior_wood",
}

tile{
  layer = 0,
  x = 152,
  y = 8,
  width = 8,
  height = 8,
  pattern = "23",
  tileset = "tombwater_interior_wood",
}

tile{
  layer = 0,
  x = 160,
  y = 192,
  width = 16,
  height = 8,
  pattern = "19",
  tileset = "tombwater_interior_wood",
}

tile{
  layer = 0,
  x = 256,
  y = 192,
  width = 8,
  height = 8,
  pattern = "25",
  tileset = "tombwater_interior_wood",
}

tile{
  layer = 0,
  x = 240,
  y = 192,
  width = 16,
  height = 8,
  pattern = "19",
  tileset = "tombwater_interior_wood",
}

tile{
  layer = 0,
  x = 160,
  y = 16,
  width = 96,
  height = 32,
  pattern = "20_2",
  tileset = "tombwater_settlement",
}

tile{
  layer = 0,
  x = 160,
  y = 48,
  width = 96,
  height = 16,
  pattern = "17_2",
  tileset = "tombwater_settlement",
}

tile{
  layer = 0,
  x = 160,
  y = 56,
  width = 96,
  height = 8,
  pattern = "37",
  tileset = "tombwater_settlement",
}

tile{
  layer = 0,
  x = 168,
  y = 32,
  width = 16,
  height = 16,
  pattern = "129",
  tileset = "tombwater_mine",
}

tile{
  layer = 0,
  x = 168,
  y = 16,
  width = 16,
  height = 16,
  pattern = "128",
  tileset = "tombwater_mine",
}

tile{
  layer = 0,
  x = 168,
  y = 0,
  width = 16,
  height = 16,
  pattern = "127",
  tileset = "tombwater_mine",
}

tile{
  layer = 0,
  x = 184,
  y = 0,
  width = 16,
  height = 16,
  pattern = "127",
  tileset = "tombwater_mine",
}

tile{
  layer = 0,
  x = 184,
  y = 16,
  width = 16,
  height = 16,
  pattern = "129",
  tileset = "tombwater_mine",
}

teletransporter{
  layer = 0,
  x = 192,
  y = 208,
  width = 32,
  height = 16,
  destination_map = "lake_locura/bleakpool_woods_lower",
  destination = "from_trapper_cabin",
}

destination{
  name = "from_outside",
  layer = 0,
  x = 208,
  y = 205,
  direction = 1,
}

custom_entity{
  name = "light_test",
  layer = 0,
  x = 216,
  y = 309,
  properties = {
    {
      key = "lighting_effect_type",
      value = "sprite",
    },
    {
      key = "opacity",
      value = "100",
    },
  },
  width = 16,
  height = 16,
  direction = 1,
  sprite = "lights/doorway_light_2",
}

chest{
  layer = 0,
  x = 184,
  y = 77,
  treasure_name = "guns/rifle",
  sprite = "chests/chest_big_2",
}

custom_entity{
  layer = 0,
  x = 168,
  y = 125,
  properties = {
    {
      key = "hp",
      value = "20",
    },
    {
      key = "hookshot_target",
      value = "true",
    },
  },
  width = 16,
  height = 16,
  direction = 0,
  sprite = "world_objects/crate_small_2",
  model = "world_objects/breakable_object",
}

custom_entity{
  layer = 0,
  x = 184,
  y = 141,
  properties = {
    {
      key = "hp",
      value = "20",
    },
    {
      key = "hookshot_target",
      value = "true",
    },
  },
  width = 16,
  height = 16,
  direction = 0,
  sprite = "world_objects/crate_small_2",
  model = "world_objects/breakable_object",
}

custom_entity{
  layer = 0,
  x = 168,
  y = 141,
  properties = {
    {
      key = "hp",
      value = "20",
    },
    {
      key = "hookshot_target",
      value = "true",
    },
  },
  width = 16,
  height = 16,
  direction = 0,
  sprite = "world_objects/crate_small_2",
  model = "world_objects/breakable_object",
}

