properties{
  x = 0,
  y = 0,
  width = 416,
  height = 480,
  min_layer = 0,
  max_layer = 2,
  tileset = "greyboxing",
}

tile{
  layer = 0,
  x = 0,
  y = 0,
  width = 416,
  height = 480,
  pattern = "15",
}

tile{
  layer = 0,
  x = 192,
  y = 416,
  width = 32,
  height = 32,
  pattern = "29",
  tileset = "tombwater_interior_wood",
}

tile{
  layer = 0,
  x = 128,
  y = 160,
  width = 160,
  height = 256,
  pattern = "29",
  tileset = "tombwater_interior_wood",
}

tile{
  layer = 0,
  x = 128,
  y = 144,
  width = 160,
  height = 16,
  pattern = "37",
  tileset = "tombwater_interior_wood",
}

tile{
  layer = 0,
  x = 128,
  y = 96,
  width = 160,
  height = 48,
  pattern = "40",
  tileset = "tombwater_interior_wood",
}

tile{
  layer = 0,
  x = 240,
  y = 296,
  width = 8,
  height = 24,
  pattern = "76",
  tileset = "oceanset_inside",
}

tile{
  layer = 0,
  x = 280,
  y = 296,
  width = 8,
  height = 24,
  pattern = "78",
  tileset = "oceanset_inside",
}

tile{
  layer = 0,
  x = 248,
  y = 296,
  width = 32,
  height = 24,
  pattern = "77",
  tileset = "oceanset_inside",
}

tile{
  layer = 0,
  x = 128,
  y = 280,
  width = 8,
  height = 24,
  pattern = "76",
  tileset = "oceanset_inside",
}

tile{
  layer = 0,
  x = 168,
  y = 280,
  width = 8,
  height = 24,
  pattern = "78",
  tileset = "oceanset_inside",
}

tile{
  layer = 0,
  x = 136,
  y = 280,
  width = 32,
  height = 24,
  pattern = "77",
  tileset = "oceanset_inside",
}

tile{
  layer = 0,
  x = 240,
  y = 208,
  width = 8,
  height = 24,
  pattern = "76",
  tileset = "oceanset_inside",
}

tile{
  layer = 0,
  x = 280,
  y = 208,
  width = 8,
  height = 24,
  pattern = "78",
  tileset = "oceanset_inside",
}

tile{
  layer = 0,
  x = 248,
  y = 208,
  width = 32,
  height = 24,
  pattern = "77",
  tileset = "oceanset_inside",
}

tile{
  layer = 0,
  x = 264,
  y = 296,
  width = 16,
  height = 16,
  pattern = "96",
  tileset = "oceanset_inside",
}

tile{
  layer = 0,
  x = 136,
  y = 280,
  width = 16,
  height = 16,
  pattern = "96",
  tileset = "oceanset_inside",
}

tile{
  layer = 0,
  x = 152,
  y = 280,
  width = 16,
  height = 16,
  pattern = "95",
  tileset = "oceanset_inside",
}

tile{
  layer = 0,
  x = 248,
  y = 296,
  width = 16,
  height = 16,
  pattern = "94",
  tileset = "oceanset_inside",
}

tile{
  layer = 0,
  x = 256,
  y = 208,
  width = 16,
  height = 16,
  pattern = "94",
  tileset = "oceanset_inside",
}

tile{
  layer = 0,
  x = 264,
  y = 208,
  width = 16,
  height = 16,
  pattern = "95",
  tileset = "oceanset_inside",
}

destination{
  name = "from_outside",
  layer = 0,
  x = 208,
  y = 429,
  direction = 1,
}

teletransporter{
  layer = 0,
  x = 192,
  y = 432,
  width = 32,
  height = 16,
  destination_map = "lake_district/district_lower",
  destination = "from_telegraph_office",
}

tile{
  layer = 1,
  x = 264,
  y = 280,
  width = 16,
  height = 16,
  pattern = "97",
  tileset = "oceanset_inside",
}

tile{
  layer = 1,
  x = 136,
  y = 264,
  width = 16,
  height = 16,
  pattern = "97",
  tileset = "oceanset_inside",
}

