animation{
  name = "stopped",
  src_image = "foraging_materials/vegetables.png",
  frame_delay = 250,
  frame_to_loop_on = 0,
  directions = {
    { x = 64, y = 80, frame_width = 16, frame_height = 16, origin_x = 8, origin_y = 13, num_frames = 4 },
  },
}
