background_color{ 255, 255, 255 }
tile_pattern{
  id = "1",
  ground = "traversable",
  default_layer = 0,
  x = 8,
  y = 48,
  width = 64,
  height = 64,
}

tile_pattern{
  id = "10",
  ground = "empty",
  default_layer = 0,
  x = 0,
  y = 40,
  width = 8,
  height = 8,
  repeat_mode = "none",
}

tile_pattern{
  id = "11",
  ground = "empty",
  default_layer = 0,
  x = 72,
  y = 40,
  width = 8,
  height = 8,
  repeat_mode = "none",
}

tile_pattern{
  id = "12",
  ground = "wall",
  default_layer = 0,
  x = 136,
  y = 96,
  width = 16,
  height = 16,
}

tile_pattern{
  id = "13",
  ground = "wall",
  default_layer = 1,
  x = 136,
  y = 80,
  width = 16,
  height = 16,
}

tile_pattern{
  id = "14",
  ground = "wall",
  default_layer = 1,
  x = 128,
  y = 64,
  width = 32,
  height = 16,
}

tile_pattern{
  id = "15",
  ground = "wall",
  default_layer = 1,
  x = 136,
  y = 48,
  width = 16,
  height = 16,
}

tile_pattern{
  id = "16",
  ground = "wall",
  default_layer = 1,
  x = 128,
  y = 32,
  width = 16,
  height = 16,
}

tile_pattern{
  id = "17",
  ground = "wall",
  default_layer = 1,
  x = 144,
  y = 32,
  width = 16,
  height = 16,
}

tile_pattern{
  id = "2",
  ground = "empty",
  default_layer = 0,
  x = 8,
  y = 40,
  width = 64,
  height = 8,
  repeat_mode = "horizontal",
}

tile_pattern{
  id = "3",
  ground = "hole",
  default_layer = 0,
  x = 144,
  y = 192,
  width = 32,
  height = 32,
}

tile_pattern{
  id = "5",
  ground = "empty",
  default_layer = 0,
  x = 72,
  y = 48,
  width = 8,
  height = 64,
  repeat_mode = "vertical",
}

tile_pattern{
  id = "6",
  ground = "empty",
  default_layer = 0,
  x = 0,
  y = 48,
  width = 8,
  height = 64,
  repeat_mode = "vertical",
}

tile_pattern{
  id = "7",
  ground = "empty",
  default_layer = 0,
  x = 8,
  y = 112,
  width = 64,
  height = 8,
  repeat_mode = "horizontal",
}

tile_pattern{
  id = "8",
  ground = "empty",
  default_layer = 0,
  x = 72,
  y = 112,
  width = 8,
  height = 8,
  repeat_mode = "none",
}

tile_pattern{
  id = "9",
  ground = "empty",
  default_layer = 0,
  x = 0,
  y = 112,
  width = 8,
  height = 8,
  repeat_mode = "none",
}

